<?xml version="1.0" standalone="no"?>
<!DOCTYPE svg PUBLIC "-//W3C//DTD SVG 1.1//EN" "http://www.w3.org/Graphics/SVG/1.1/DTD/svg11.dtd" >
<svg xmlns="http://www.w3.org/2000/svg">
<metadata></metadata>
<defs>
<font id="proxima_novalight_italic" horiz-adv-x="1250" >
<font-face units-per-em="2048" ascent="1618" descent="-430" />
<missing-glyph horiz-adv-x="567" />
<glyph horiz-adv-x="0" />
<glyph horiz-adv-x="0" />
<glyph horiz-adv-x="682" />
<glyph unicode="&#xd;" horiz-adv-x="0" />
<glyph unicode=" "  horiz-adv-x="567" />
<glyph unicode="&#x09;" horiz-adv-x="567" />
<glyph unicode="&#xa0;" horiz-adv-x="567" />
<glyph unicode="!" horiz-adv-x="479" d="M42 67q0 43 30.5 73.5t74.5 30.5q36 0 61.5 -26t25.5 -64q0 -42 -31 -72t-74 -30q-37 0 -62 25.5t-25 62.5zM160 381l210 1081h147l-268 -1081h-89z" />
<glyph unicode="&#x22;" horiz-adv-x="694" d="M259 935q50 421 55 452q3 43 28 69.5t64 26.5q28 0 48.5 -20.5t20.5 -51.5q0 -4 -1.5 -11t-3 -12.5t-3.5 -11.5l-3 -9l-142 -432h-63zM546 935q50 421 54 452q2 28 14 50t32.5 34t45.5 12q30 0 50.5 -20.5t20.5 -51.5q0 -20 -12 -44l-142 -432h-63z" />
<glyph unicode="#" horiz-adv-x="1267" d="M25 408l46 90h245l261 466h-246l43 90h253l224 408h102l-223 -408h257l222 408h106l-228 -408h243l-44 -90h-247l-263 -466h254l-46 -90h-254l-226 -408h-105l228 408h-259l-226 -408h-102l228 408h-243zM418 498h255l262 466h-256z" />
<glyph unicode="$" horiz-adv-x="1279" d="M57 230l92 90q40 -56 93 -100.5t118.5 -75.5t139.5 -46l136 607q-48 21 -79.5 35t-74.5 37t-70.5 43.5t-58 49t-48 58.5t-29 68.5t-11.5 82.5q0 81 38.5 156.5t104 130.5t157 87.5t194.5 32.5q24 0 50 -3l44 200h100l-48 -213q118 -23 211 -78.5t147 -133.5l-95 -87 q-32 48 -78.5 85.5t-98.5 62t-110 38.5l-122 -552q46 -20 79.5 -35.5t75.5 -38.5t71 -44.5t59 -51t48 -60.5t29.5 -70.5t11.5 -83.5q0 -67 -21 -131t-64 -121.5t-103.5 -101t-145.5 -69t-184 -25.5q-28 0 -43 2l-41 -194h-102l46 206q-141 23 -252 88t-166 155zM401 1091 q0 -35 14.5 -66t36.5 -54.5t59.5 -47.5t71.5 -41t84 -39l115 527q-11 2 -35 2q-94 0 -174.5 -40t-126 -104.5t-45.5 -136.5zM598 88h29q75 0 138 19.5t104.5 51t70.5 73.5t42 85.5t13 88.5q0 38 -14.5 71.5t-37 59t-60 50.5t-72 42.5t-83.5 39.5z" />
<glyph unicode="%" horiz-adv-x="1577" d="M163 0l1255 1462h100l-1257 -1462h-98zM197 1058q0 93 31.5 173.5t85 135t123 85.5t144.5 31q134 0 225 -81.5t91 -209.5q0 -75 -20.5 -142t-57 -118t-84.5 -88.5t-105 -57t-117 -19.5q-135 0 -225.5 81t-90.5 210zM299 1067q0 -94 61 -155t157 -61q72 0 135.5 42.5 t103 119.5t39.5 168q0 94 -61.5 155.5t-156.5 61.5q-73 0 -137 -42.5t-102.5 -119.5t-38.5 -169zM765 268q0 92 32 172.5t85 135t122.5 85.5t143.5 31q136 0 227 -81.5t91 -211.5q0 -93 -32 -173.5t-85 -135t-122.5 -86t-143.5 -31.5q-135 0 -226.5 82.5t-91.5 212.5z M868 276q0 -94 61.5 -155.5t155.5 -61.5q73 0 136.5 42.5t102.5 119.5t39 169.5t-61.5 154.5t-155.5 62q-54 0 -105 -25.5t-89 -69t-61 -105.5t-23 -131z" />
<glyph unicode="&#x26;" horiz-adv-x="1399" d="M46 331q0 59 13 112t34 94.5t54 79.5t68 66.5t82 56.5t88.5 48t94.5 42q-55 142 -55 261q0 105 54 196t143 143.5t189 52.5q132 0 216 -64.5t84 -182.5q0 -53 -15 -99t-35 -80.5t-60.5 -69.5t-71.5 -56.5t-88.5 -49.5t-91.5 -42.5t-100 -41.5q-10 -4 -16 -6 q51 -107 128 -230q48 -87 153 -247q54 58 106 126.5t85 120.5t56 96l95 -55q-150 -240 -281 -376q54 -73 177 -226h-157q-28 33 -110 142q-200 -169 -414 -169q-120 0 -215 40t-152.5 122.5t-57.5 195.5zM178 347q0 -66 24.5 -119t67.5 -86t97 -50t116 -17q162 0 341 153 q-119 173 -167 259q-95 160 -140 256q-61 -28 -106.5 -53.5t-92 -61.5t-75.5 -75t-47 -92t-18 -114zM548 1094q0 -98 48 -218q55 22 88.5 36t80.5 36t75.5 40.5t61 45.5t50 54t29.5 62.5t12 74.5t-14.5 70.5t-39.5 51t-57 30t-69 10.5q-45 0 -91.5 -19.5t-85.5 -55.5 t-63.5 -93t-24.5 -125z" />
<glyph unicode="'" horiz-adv-x="408" d="M259 935q50 421 55 452q3 43 28 69.5t64 26.5q28 0 48.5 -20.5t20.5 -51.5q0 -4 -1.5 -11t-3 -12.5t-3.5 -11.5l-3 -9l-142 -432h-63z" />
<glyph unicode="(" horiz-adv-x="496" d="M55 184q0 340 140.5 676.5t409.5 640.5l56 -57q-236 -318 -359.5 -640t-123.5 -672q0 -227 79 -525l-79 -44q-123 289 -123 621z" />
<glyph unicode=")" horiz-adv-x="496" d="M-167 -379q237 318 361 639.5t124 672.5q0 227 -79 524l77 44q125 -285 125 -620q0 -340 -141 -676.5t-409 -641.5z" />
<glyph unicode="*" horiz-adv-x="734" d="M199 1096l253 90l-199 138l54 65l184 -160l44 254h83l-70 -258l245 111l24 -73l-252 -90l200 -138l-57 -67l-182 161l-43 -255h-86l72 261l-245 -114z" />
<glyph unicode="+" horiz-adv-x="1086" d="M98 692l21 92h431l101 463h98l-101 -463h433l-23 -92h-431l-106 -475h-96l106 475h-433z" />
<glyph unicode="," horiz-adv-x="479" d="M-40 -197q62 32 109.5 83t62.5 101h-15q-30 0 -52.5 23t-22.5 55q0 29 14 53.5t37.5 38.5t50.5 14q41 0 68 -28.5t27 -77.5q0 -90 -67.5 -182t-158.5 -140z" />
<glyph unicode="-" horiz-adv-x="656" d="M52 477l23 106h525l-21 -106h-527z" />
<glyph unicode="." horiz-adv-x="479" d="M42 67q0 43 30.5 73.5t74.5 30.5q36 0 61.5 -26t25.5 -64q0 -42 -31 -72t-74 -30q-37 0 -62 25.5t-25 62.5z" />
<glyph unicode="/" horiz-adv-x="617" d="M-129 -44l861 1549h103l-864 -1549h-100z" />
<glyph unicode="0" horiz-adv-x="1332" d="M142 535q0 107 21 218t59.5 216.5t98.5 199t132.5 163.5t166.5 110.5t197 40.5q112 0 199 -39.5t143 -113t85 -176t29 -230.5q0 -106 -20.5 -217.5t-58.5 -217.5t-97 -199.5t-131.5 -164t-166.5 -111.5t-197 -41q-111 0 -199 40.5t-144.5 114.5t-86.5 177t-30 230z M274 526q0 -76 11.5 -140.5t37.5 -120t65 -94.5t96 -61t129 -22q69 0 133 27.5t116 76t97.5 113.5t79 141.5t57.5 159t36 166t12 161.5q0 96 -19 173t-58.5 137.5t-106 93.5t-155.5 33q-80 0 -153.5 -37t-130.5 -100.5t-104.5 -147t-78.5 -177.5t-47.5 -192t-16.5 -190z" />
<glyph unicode="1" horiz-adv-x="674" d="M186 1122l397 340h114l-323 -1462h-125l284 1290l-288 -249z" />
<glyph unicode="2" horiz-adv-x="1274" d="M4 0l31 132q145 92 240.5 154.5t215.5 146t197 145t158 136.5t126.5 137.5t74.5 131t29 132.5q0 79 -43 137t-118.5 88t-174.5 30q-232 0 -378 -147l-69 88q52 51 123 90t156 60.5t173 21.5q73 0 140 -13.5t127 -42.5t104.5 -71t70 -102.5t25.5 -133.5 q0 -57 -17.5 -116.5t-47.5 -114.5t-79 -114.5t-100.5 -112t-123.5 -112.5t-138 -110t-154 -110.5t-160.5 -108t-167.5 -108.5h769l-25 -113h-964z" />
<glyph unicode="3" horiz-adv-x="1191" d="M2 278l101 67q48 -118 164.5 -187.5t258.5 -69.5q176 0 281 98.5t105 252.5q0 76 -43 134t-122.5 89.5t-183.5 31.5q-100 0 -124 -2l28 119q19 -2 194 -2q49 0 96 8t89.5 24t78 41.5t61.5 58t40.5 75.5t14.5 93q0 111 -98 186t-257 75q-208 0 -375 -153l-62 87 q55 55 126.5 95t153.5 62t163 22q103 0 189.5 -24t150.5 -69t100 -114.5t36 -155.5q0 -67 -23 -127t-62.5 -103.5t-91 -76.5t-107.5 -51t-113 -22q43 -10 82 -28t72.5 -46t58 -62.5t39 -78.5t14.5 -94q0 -92 -37 -175.5t-102.5 -146t-162 -99.5t-209.5 -37 q-117 0 -224.5 38.5t-187 108.5t-112.5 158z" />
<glyph unicode="4" horiz-adv-x="1184" d="M46 399l29 120l845 943h178l-211 -949h215l-23 -114h-216l-87 -399h-125l87 399h-692zM199 513h564l182 823z" />
<glyph unicode="5" horiz-adv-x="1274" d="M92 270l101 71q111 -253 412 -253q108 0 200.5 52t147.5 144t55 203q0 98 -46.5 169t-125.5 106t-181 35q-90 0 -167 -27t-153 -84l-82 50l159 726h844l-24 -114h-719l-120 -541q55 42 137 71t175 29q87 0 164.5 -26.5t138 -76.5t96.5 -129t36 -177q0 -105 -40.5 -200.5 t-111.5 -167.5t-173.5 -114.5t-220.5 -42.5q-186 0 -309 74t-193 223z" />
<glyph unicode="6" horiz-adv-x="1279" d="M134 500q0 84 12.5 175t39.5 187t66.5 185.5t97 169t126 138.5t159 93.5t191.5 34.5q147 0 255.5 -59.5t165.5 -167.5l-95 -81q-27 61 -74 104.5t-113 67t-145 23.5q-92 0 -171 -38.5t-135.5 -99t-103 -145.5t-75.5 -169t-50 -178q-1 -3 -11 -41q31 35 76.5 69 t102.5 65.5t125.5 50.5t134.5 19q195 0 315 -102.5t120 -277.5q0 -108 -41.5 -208.5t-113 -175.5t-174 -120.5t-217.5 -45.5q-226 0 -347 137.5t-121 389.5zM255 467q0 -172 91 -275.5t261 -103.5q86 0 163 35t130.5 92.5t84.5 133.5t31 157q0 88 -42.5 153t-120 99.5 t-180.5 34.5q-114 0 -220 -55.5t-194 -154.5q-4 -38 -4 -116z" />
<glyph unicode="7" horiz-adv-x="1099" d="M147 0l907 1348h-801l23 114h958l-20 -88l-923 -1374h-144z" />
<glyph unicode="8" d="M81 339q0 112 59.5 202t161.5 147t237 81q-51 19 -96.5 47.5t-85 67t-62.5 90t-23 109.5q0 79 29 146t78 113t113 78.5t133 47.5t140 15q93 0 178 -24t150 -68t104 -111.5t39 -148.5q0 -107 -56.5 -190.5t-151.5 -133t-221 -67.5q39 -16 76 -37t76.5 -53.5t68 -69 t47.5 -86t19 -103.5q0 -118 -69 -214.5t-186 -150t-256 -53.5q-144 0 -256 41t-179 125t-67 200zM213 360q0 -87 52 -150t135 -92.5t185 -29.5q71 0 138.5 21.5t122 60t87.5 98.5t33 131q0 46 -19.5 89.5t-51 76t-72.5 60.5t-81.5 45.5t-80.5 28.5q-127 -9 -228.5 -53 t-160.5 -118.5t-59 -167.5zM399 1076q0 -39 18.5 -77.5t48 -68.5t67.5 -55.5t77 -42t76 -25.5q91 7 166 30t131.5 61t87.5 94t31 125q0 70 -46 127.5t-124 90t-171 32.5q-96 0 -177.5 -33t-133 -100.5t-51.5 -157.5z" />
<glyph unicode="9" horiz-adv-x="1279" d="M119 203l92 82q41 -93 127.5 -144t207.5 -51q65 0 124.5 20t107 53.5t89.5 82.5t74 103t59 118t46 125t35 127q8 39 8 40q-31 -35 -76.5 -69t-102.5 -65t-125.5 -50t-133.5 -19q-196 0 -316 102t-120 277q0 108 42 209t113.5 176t174 120.5t216.5 45.5q226 0 347 -137 t121 -389q0 -74 -9.5 -153.5t-29 -163t-51 -164.5t-72.5 -156t-96 -138t-119 -110t-145 -73.5t-170 -26.5q-147 0 -255 60t-163 168zM347 953q0 -132 93.5 -209t249.5 -77q117 0 222.5 55t191.5 154q5 39 5 117q0 171 -91.5 275t-261.5 104q-86 0 -163 -35t-130.5 -93 t-84.5 -134t-31 -157z" />
<glyph unicode=":" horiz-adv-x="479" d="M42 67q0 43 30.5 73.5t74.5 30.5q36 0 61.5 -26t25.5 -64q0 -42 -31 -72t-74 -30q-37 0 -62 25.5t-25 62.5zM241 970q0 28 14.5 52t39 38t52.5 14q37 0 62 -25.5t25 -61.5q0 -44 -31 -74t-75 -30q-37 0 -62 25t-25 62z" />
<glyph unicode=";" horiz-adv-x="479" d="M-40 -197q62 32 109.5 83t62.5 101h-15q-30 0 -52.5 23t-22.5 55q0 29 14 53.5t37.5 38.5t50.5 14q41 0 68 -28.5t27 -77.5q0 -90 -67.5 -182t-158.5 -140zM241 970q0 28 14.5 52t39 38t52.5 14q37 0 62 -25.5t25 -61.5q0 -44 -31 -74t-75 -30q-37 0 -62 25t-25 62z" />
<glyph unicode="&#x3c;" horiz-adv-x="1086" d="M96 692l21 82l1069 497l-27 -114l-940 -432l749 -424l-21 -104z" />
<glyph unicode="=" horiz-adv-x="1086" d="M48 473l23 90h959l-20 -90h-962zM144 901l21 92h960l-21 -92h-960z" />
<glyph unicode="&#x3e;" horiz-adv-x="1086" d="M-13 197l26 114l943 425l-753 432l23 103l850 -497l-18 -82z" />
<glyph unicode="?" horiz-adv-x="1016" d="M207 1297q97 96 204.5 141t232.5 45q193 0 312.5 -88.5t119.5 -231.5q0 -62 -19.5 -115.5t-53.5 -92t-77.5 -72t-92 -59.5t-97 -50.5t-92 -49t-77.5 -51t-54 -61.5t-20 -75q0 -54 42 -96l-98 -56q-58 74 -58 159q0 32 9 62t21 53t36.5 47t43 39.5t53.5 36t55.5 31.5 t60.5 31.5t60.5 31.5t55.5 32t54 36.5t43.5 39.5t36.5 47t21 53.5t9 63.5q0 66 -35.5 116t-104.5 78t-162 28q-214 0 -368 -158zM289 67q0 43 31.5 73.5t74.5 30.5q25 0 45 -12t31.5 -32.5t11.5 -45.5q0 -42 -31 -72t-75 -30q-37 0 -62.5 25.5t-25.5 62.5z" />
<glyph unicode="@" horiz-adv-x="1715" d="M121 535q0 117 33 229t91 206.5t140 174.5t177.5 135.5t205.5 86.5t223 31q151 0 281 -55t219 -150t139.5 -225t50.5 -276q0 -119 -30 -217.5t-80.5 -160t-113.5 -95t-131 -33.5q-87 0 -139 55t-54 131l-2 13q-62 -85 -158.5 -142t-201.5 -57q-151 0 -242.5 96t-91.5 255 q0 114 45 218.5t118 178t168 117t192 43.5q104 0 177 -51t107 -129l29 142h107l-129 -617q-4 -26 -4 -42q0 -37 15 -65t40 -42t55 -14q28 0 59.5 12t66.5 42.5t63 76t46 120.5t18 167q0 135 -45.5 252t-127 201t-198.5 132.5t-255 48.5q-90 0 -178 -22t-166 -63 t-147.5 -96.5t-124.5 -125t-95 -147t-61.5 -164t-21.5 -173.5q0 -131 48 -246t131.5 -198t201.5 -131t253 -48q217 0 410 126l37 -55q-214 -138 -456 -138q-147 0 -276 53.5t-220.5 145t-144.5 219t-53 270.5zM550 544q0 -78 28 -138t83.5 -95t131.5 -35q59 0 115 19.5 t101 53.5t80 70.5t63 78.5l71 324q-11 31 -30.5 61t-49.5 58t-74.5 45.5t-95.5 17.5q-86 0 -165 -39.5t-135 -103.5t-89.5 -147.5t-33.5 -169.5z" />
<glyph unicode="A" horiz-adv-x="1417" d="M-86 0l921 1462h156l276 -1462h-138l-69 360h-771l-224 -360h-151zM355 473h693l-159 855z" />
<glyph unicode="B" horiz-adv-x="1344" d="M63 0l322 1462h564q99 0 181 -40.5t131.5 -116.5t49.5 -174q0 -77 -28 -147.5t-74.5 -121.5t-108.5 -84.5t-130 -41.5q92 -23 152.5 -110t60.5 -192q0 -67 -18.5 -130t-58.5 -118.5t-97.5 -96.5t-140 -65t-180.5 -24h-625zM213 113h481q58 0 108.5 13t89.5 35.5t70 53.5 t51 67.5t30.5 76.5t10.5 82q0 110 -72 180.5t-196 70.5h-445zM368 807h478q71 0 127.5 18t93 48.5t61 71.5t35 83.5t10.5 88.5q0 98 -73.5 164.5t-179.5 66.5h-433z" />
<glyph unicode="C" horiz-adv-x="1472" d="M147 607q0 130 31.5 249.5t87.5 215t132.5 174.5t166.5 131t190.5 80.5t202.5 28.5q192 0 341.5 -81t232.5 -232l-121 -56q-72 131 -192.5 193t-269.5 62q-62 0 -124 -14t-120.5 -39.5t-112.5 -64.5t-101 -87.5t-85.5 -110t-65.5 -130t-42.5 -149t-15.5 -166.5 q0 -156 64.5 -274.5t184.5 -183.5t280 -65q221 0 412 167l90 -75q-108 -104 -240 -155.5t-268 -51.5q-143 0 -264.5 46t-208.5 128t-136 200.5t-49 259.5z" />
<glyph unicode="D" horiz-adv-x="1516" d="M63 0l322 1462h456q121 0 230 -47t189.5 -128.5t127.5 -198t47 -249.5q0 -102 -25 -202.5t-73.5 -194.5t-126 -174t-175 -140t-228 -94t-278.5 -34h-466zM213 113h326h11q136 0 255.5 38t210 105t156 157t99 198t33.5 224q0 145 -63 263t-174.5 184t-249.5 66h-330z" />
<glyph unicode="E" horiz-adv-x="1235" d="M63 0l322 1462h928l-25 -114h-801l-119 -541h784l-25 -115h-786l-128 -579h799l-21 -113h-928z" />
<glyph unicode="F" horiz-adv-x="1187" d="M63 0l322 1462h928l-25 -114h-801l-119 -541h784l-25 -115h-786l-153 -692h-125z" />
<glyph unicode="G" horiz-adv-x="1557" d="M147 607q0 107 22 209t63 188.5t97.5 162.5t128 134t152 100t171 63.5t183.5 21.5q128 0 237.5 -37.5t190.5 -104t135 -158.5l-111 -57q-66 119 -190 181t-277 62q-102 0 -201 -36t-182.5 -104.5t-147.5 -160t-100 -211t-36 -249.5q0 -239 144.5 -381t384.5 -142 q237 0 425 175l77 350h-552l23 112h680l-116 -522q-115 -111 -252.5 -170.5t-290.5 -59.5q-148 0 -271.5 47.5t-208 131t-131.5 201t-47 254.5z" />
<glyph unicode="H" horiz-adv-x="1539" d="M63 0l322 1462h125l-142 -653h925l144 653h127l-322 -1462h-127l154 694h-928l-153 -694h-125z" />
<glyph unicode="I" horiz-adv-x="487" d="M63 0l322 1462h125l-322 -1462h-125z" />
<glyph unicode="J" horiz-adv-x="1029" d="M-42 167l84 88q43 -81 117 -124t176 -43q145 0 236 90t126 245l227 1039h128l-228 -1039q-50 -225 -173.5 -337.5t-309.5 -112.5q-127 0 -228 50t-155 144z" />
<glyph unicode="K" horiz-adv-x="1284" d="M63 0l322 1462h125l-173 -785l868 785h171l-776 -697l513 -765h-149l-456 697l-205 -187l-115 -510h-125z" />
<glyph unicode="L" horiz-adv-x="1132" d="M63 0l322 1462h125l-297 -1349h707l-23 -113h-834z" />
<glyph unicode="M" horiz-adv-x="1730" d="M63 0l322 1462h180l228 -1219l767 1219h193l-322 -1462h-127l287 1304l-820 -1304h-48l-246 1304l-289 -1304h-125z" />
<glyph unicode="N" horiz-adv-x="1531" d="M63 0l322 1462h128l635 -1255l280 1255h126l-322 -1462h-123l-638 1275l-283 -1275h-125z" />
<glyph unicode="O" horiz-adv-x="1673" d="M147 607q0 122 29 237t81.5 211t127 177t164 136.5t194 86.5t215.5 31q108 0 206.5 -26.5t180 -79.5t141.5 -128t93 -177t33 -222q0 -105 -21 -205t-61 -186.5t-95.5 -162.5t-125.5 -135.5t-149.5 -102.5t-170 -65.5t-184.5 -22.5q-110 0 -208.5 26.5t-180.5 79.5 t-142.5 128t-93.5 177.5t-33 222.5zM282 611q0 -100 27.5 -185t76 -147t114.5 -105.5t145 -64.5t166 -21q131 0 252.5 57t213 156t146 242.5t54.5 305.5q0 124 -42 224.5t-115 165t-168.5 99t-204.5 34.5q-132 0 -253.5 -57.5t-212 -156.5t-145 -242t-54.5 -305z" />
<glyph unicode="P" d="M63 0l322 1462h514q84 0 156.5 -30t121.5 -80t77 -117t28 -139q0 -70 -18.5 -138t-61 -132t-103.5 -112.5t-154 -77.5t-205 -29h-416l-136 -607h-125zM349 721h407q95 0 171 30t123.5 81t72.5 116.5t25 138.5q0 106 -77.5 183.5t-192.5 77.5h-391z" />
<glyph unicode="Q" horiz-adv-x="1673" d="M147 607q0 122 29 237t81.5 211t127 177t164 136.5t194 86.5t215.5 31q108 0 206.5 -26.5t180 -79.5t141.5 -128t93 -177t33 -222q0 -148 -42 -284t-117 -245t-178 -188l99 -132l-101 -63l-96 130q-178 -98 -372 -98q-110 0 -208.5 26.5t-180.5 79.5t-142.5 128 t-93.5 177.5t-33 222.5zM282 611q0 -100 27.5 -185t76 -147t114.5 -105.5t145 -64.5t166 -21q152 0 293 79l-188 256l100 64l187 -255q127 105 200.5 264.5t73.5 352.5q0 124 -42 224.5t-115 165t-168.5 99t-204.5 34.5q-132 0 -253.5 -57.5t-212 -156.5t-145 -242 t-54.5 -305z" />
<glyph unicode="R" horiz-adv-x="1301" d="M63 0l322 1462h502q59 0 116.5 -15.5t108 -47t89 -75t61 -103t22.5 -127.5q0 -102 -36 -189.5t-100 -151.5t-158 -102t-206 -42l287 -609h-142l-276 605h-331l-134 -605h-125zM349 719h402h5q94 0 169.5 29.5t123.5 80.5t73.5 117t25.5 141q0 45 -15 86t-41.5 72.5 t-61.5 55t-75.5 35.5t-82.5 12h-385z" />
<glyph unicode="S" horiz-adv-x="1272" d="M52 230l92 90q77 -109 201 -170.5t278 -61.5q75 0 138 19.5t104.5 51t70.5 73.5t42 85.5t13 88.5q0 51 -25 94t-67.5 74t-97 58.5t-115 52.5t-121 51t-115.5 58.5t-97 71.5t-67 93t-25 120q0 81 38.5 156.5t103.5 130.5t157 87.5t194 32.5q110 0 209.5 -28.5t174.5 -80 t120 -119.5l-95 -87q-67 98 -179.5 149.5t-240.5 51.5q-94 0 -174.5 -40t-126 -104.5t-45.5 -136.5q0 -46 25 -85.5t67.5 -69t97.5 -56.5t115.5 -52.5t121 -52.5t115.5 -61t97.5 -74.5t67.5 -96.5t25 -122.5t-21 -130.5t-64 -121.5t-103.5 -101t-145.5 -69t-184 -25.5 q-122 0 -234.5 34.5t-195.5 92t-129 130.5z" />
<glyph unicode="T" horiz-adv-x="1235" d="M257 1348l23 114h1083l-24 -114h-478l-298 -1348h-126l297 1348h-477z" />
<glyph unicode="U" horiz-adv-x="1502" d="M178 449q0 64 10 112l197 901h128l-197 -899q-13 -52 -13 -99q0 -169 110 -272.5t304 -103.5q106 0 187.5 32t138.5 95.5t94.5 148t63.5 199.5l197 899h127l-197 -901q-26 -113 -59 -200t-83.5 -162t-115.5 -123.5t-154 -75.5t-199 -27q-250 0 -394.5 128.5t-144.5 347.5 z" />
<glyph unicode="V" horiz-adv-x="1417" d="M236 1462h138l239 -1322l824 1322h152l-920 -1462h-156z" />
<glyph unicode="W" horiz-adv-x="1899" d="M245 1462h138l66 -1287l645 1287h113l75 -1287l635 1287h145l-738 -1462h-141l-74 1256l-626 -1256h-142z" />
<glyph unicode="X" horiz-adv-x="1412" d="M-79 0l752 759l-397 703h147l344 -621l605 621h171l-708 -719l418 -743h-142l-373 661l-646 -661h-171z" />
<glyph unicode="Y" horiz-adv-x="1353" d="M236 1462h141l336 -719l650 719h162l-764 -837l-138 -625h-128l138 625z" />
<glyph unicode="Z" horiz-adv-x="1272" d="M-9 0l24 109l1144 1239h-868l23 114h1038l-22 -107l-1146 -1242h885l-24 -113h-1054z" />
<glyph unicode="[" horiz-adv-x="498" d="M-129 -416l420 1902h382l-22 -95h-285l-379 -1713h283l-21 -94h-378z" />
<glyph unicode="\" horiz-adv-x="617" d="M215 1505h99l175 -1549h-98z" />
<glyph unicode="]" horiz-adv-x="498" d="M-173 -416l22 94h280l381 1713h-284l21 95h382l-422 -1902h-380z" />
<glyph unicode="^" horiz-adv-x="937" d="M83 730l544 732h92l219 -732h-99l-182 642l-464 -642h-110z" />
<glyph unicode="_" horiz-adv-x="1235" d="M-165 -182l23 94h1246l-21 -94h-1248z" />
<glyph unicode="`" horiz-adv-x="472" d="M221 1534h136l268 -315h-96z" />
<glyph unicode="a" d="M98 408q0 88 18.5 173.5t52 160.5t83 138.5t110 108.5t136 70.5t157.5 25.5q126 0 225.5 -56t156.5 -151l37 180h116l-234 -1058h-117l37 160q-68 -87 -161 -137t-202 -50q-186 0 -300.5 116.5t-114.5 318.5zM224 427q0 -162 87 -256t233 -94q71 0 142 28.5t125.5 73.5 t91.5 101l111 509q-41 83 -134 138t-216 55q-77 0 -147 -30.5t-122.5 -84t-91.5 -123.5t-59 -151.5t-20 -165.5z" />
<glyph unicode="b" d="M59 0l322 1462h114l-123 -563q44 57 99 98t123 64.5t142 23.5q184 0 298 -117t114 -320q0 -105 -25.5 -205t-74 -185t-115 -149t-154.5 -100t-185 -36q-127 0 -225.5 56t-155.5 151l-40 -180h-114zM232 270q42 -84 135 -138.5t216 -54.5q78 0 148 30.5t122.5 84t91 123 t58.5 150.5t20 164q0 162 -87.5 257.5t-232.5 95.5q-106 0 -202 -58.5t-156 -145.5z" />
<glyph unicode="c" horiz-adv-x="1081" d="M101 443q0 103 29 200.5t82.5 176.5t125.5 139t162.5 93t187.5 33q265 0 379 -193l-88 -66q-30 52 -75.5 87.5t-98.5 52t-113 16.5q-85 0 -160 -29.5t-131 -81t-97 -120t-62 -148t-21 -162.5q0 -117 48 -200.5t128.5 -123.5t185.5 -40q87 0 161 36.5t126 99.5l65 -79 q-74 -78 -161 -119.5t-202 -41.5q-102 0 -188 31.5t-149 90.5t-98.5 148t-35.5 200z" />
<glyph unicode="d" d="M98 408q0 88 18.5 173.5t52 160.5t83 138.5t110 108.5t136 70.5t157.5 25.5q126 0 225.5 -56t156.5 -151l126 584h117l-324 -1462h-117l37 160q-68 -87 -161 -137t-202 -50q-186 0 -300.5 116.5t-114.5 318.5zM224 427q0 -162 87 -256t233 -94q71 0 142 28.5t125.5 73.5 t91.5 101l111 509q-41 83 -134 138t-216 55q-77 0 -147 -30.5t-122.5 -84t-91.5 -123.5t-59 -151.5t-20 -165.5z" />
<glyph unicode="e" horiz-adv-x="1242" d="M101 441q0 130 46 249t124 205.5t187 138t230 51.5q104 0 189 -35t142 -96.5t87.5 -145.5t30.5 -181q0 -62 -17 -134h-894q-5 -25 -5 -62q0 -74 25 -138t72 -113.5t121.5 -78t169.5 -28.5q84 0 168.5 28.5t151.5 84.5l44 -83q-75 -58 -172 -94t-196 -36q-118 0 -213 34.5 t-159 96t-98 148t-34 189.5zM236 583h789q3 16 3 48q0 159 -93 257.5t-260 98.5q-104 0 -199 -55.5t-158 -148t-82 -200.5z" />
<glyph unicode="f" horiz-adv-x="579" d="M96 0l213 958h-175l21 100h176l20 97q77 328 331 328q67 0 115.5 -18.5t91.5 -61.5l-65 -73q-51 55 -142 55q-89 0 -139 -57.5t-76 -172.5l-22 -97h216l-23 -100h-215l-210 -958h-117z" />
<glyph unicode="g" horiz-adv-x="1248" d="M9 -249l81 80q107 -162 372 -162q67 0 124 18.5t108 57.5t88.5 106.5t58.5 159.5l33 158q-67 -85 -163.5 -135.5t-210.5 -50.5q-86 0 -158 27t-127 80t-86 138.5t-31 194.5q0 101 24.5 198.5t72 181t113 147t153.5 99.5t187 36q112 0 219 -58.5t166 -148.5l41 180h116 l-234 -1047q-26 -119 -74 -205.5t-113.5 -137t-140.5 -74t-164 -23.5q-158 0 -268.5 40t-186.5 140zM219 439q0 -66 15 -122t43 -99t67 -73t89 -46t108 -16q97 0 195 55t163 136l115 512q-47 89 -147 142.5t-214 53.5q-78 0 -147.5 -31t-121 -84.5t-89.5 -122.5t-57 -147.5 t-19 -157.5z" />
<glyph unicode="h" horiz-adv-x="1182" d="M59 0l322 1462h114l-123 -563q82 80 181 133t201 53q140 0 224.5 -66.5t84.5 -192.5q0 -41 -13 -90l-163 -736h-113l157 719q14 63 14 76q0 95 -64.5 141t-172.5 46q-91 0 -186 -53.5t-173 -133.5l-176 -795h-114z" />
<glyph unicode="i" horiz-adv-x="468" d="M59 0l234 1058h115l-235 -1058h-114zM316 1302q0 42 30.5 69t67.5 27q34 0 56.5 -22.5t22.5 -54.5q0 -41 -30.5 -68.5t-67.5 -27.5q-33 0 -56 23t-23 54z" />
<glyph unicode="j" horiz-adv-x="468" d="M-397 -337l62 82q26 -33 68.5 -54.5t88.5 -21.5q79 0 131 47t76 148l264 1194h115l-266 -1194q-22 -99 -61 -163t-99.5 -97t-144.5 -33q-75 0 -136 23.5t-98 68.5zM316 1302q0 42 30.5 69t67.5 27q34 0 56.5 -22.5t22.5 -54.5q0 -41 -30.5 -68.5t-67.5 -27.5 q-33 0 -56 23t-23 54z" />
<glyph unicode="k" horiz-adv-x="1106" d="M59 0l322 1462h114l-221 -1000l749 596h160l-600 -477l364 -581h-140l-318 510l-246 -192l-70 -318h-114z" />
<glyph unicode="l" horiz-adv-x="468" d="M59 0l322 1462h114l-322 -1462h-114z" />
<glyph unicode="m" horiz-adv-x="1728" d="M59 0l234 1058h115l-36 -159q27 30 58 58t75 59t98 50t107 19q64 0 116.5 -21t83.5 -52.5t48 -66t17 -64.5v-5q71 90 166 149.5t200 59.5q72 0 132 -29t97.5 -88.5t37.5 -141.5q0 -28 -13 -90l-162 -736h-114l162 736q10 39 10 64q0 84 -56.5 133t-137.5 49 q-79 0 -165.5 -53.5t-152.5 -131.5l-174 -797h-117l165 736q1 11 3.5 26t3.5 25.5t1 25.5q-1 74 -52.5 121.5t-144.5 47.5q-76 0 -160 -52.5t-155 -132.5l-176 -797h-114z" />
<glyph unicode="n" horiz-adv-x="1182" d="M59 0l234 1058h115l-36 -159q82 80 181 133t201 53q140 0 224.5 -66.5t84.5 -192.5q0 -41 -13 -90l-163 -736h-113l157 719q1 4 4 15.5t4.5 20t3.5 20t2 20.5q0 48 -17.5 84.5t-49 58.5t-73 33t-90.5 11q-96 0 -192.5 -52.5t-173.5 -132.5l-176 -797h-114z" />
<glyph unicode="o" d="M98 439q0 124 45 241.5t121 207t185.5 143.5t232.5 54q213 0 339.5 -127t126.5 -337q0 -125 -44.5 -242.5t-121 -207t-186 -144t-231.5 -54.5q-213 0 -340 127.5t-127 338.5zM224 443q0 -168 91 -267t252 -99q78 0 149 29.5t126.5 81.5t96.5 119.5t62.5 147t21.5 160.5 q0 168 -91 267.5t-253 99.5q-96 0 -182 -45.5t-145.5 -121t-93.5 -173t-34 -199.5z" />
<glyph unicode="p" horiz-adv-x="1242" d="M-31 -403l324 1461h115l-36 -159q44 57 99 98t123 64.5t142 23.5q184 0 298 -117t114 -320q0 -105 -25.5 -205t-74 -185t-115 -149t-154.5 -100t-185 -36q-127 0 -225.5 56t-155.5 151l-130 -583h-114zM232 270q42 -84 135 -138.5t216 -54.5q78 0 148 30.5t122.5 84 t91 123t58.5 150.5t20 164q0 162 -87.5 257.5t-232.5 95.5q-106 0 -202 -58.5t-156 -145.5z" />
<glyph unicode="q" horiz-adv-x="1242" d="M98 408q0 88 18.5 173.5t52 160.5t83 138.5t110 108.5t136 70.5t157.5 25.5q126 0 225.5 -56t156.5 -151l37 180h116l-324 -1461h-117l127 563q-68 -87 -161 -137t-202 -50q-186 0 -300.5 116.5t-114.5 318.5zM224 427q0 -162 87 -256t233 -94q71 0 142 28.5t125.5 73.5 t91.5 101l111 509q-41 83 -134 138t-216 55q-77 0 -147 -30.5t-122.5 -84t-91.5 -123.5t-59 -151.5t-20 -165.5z" />
<glyph unicode="r" horiz-adv-x="694" d="M59 0l234 1058h115l-40 -171q87 101 176.5 147.5t224.5 46.5l-26 -123q-39 6 -76 6q-92 0 -179.5 -56.5t-142.5 -136.5l-172 -771h-114z" />
<glyph unicode="s" horiz-adv-x="1005" d="M17 160l81 79q29 -46 78 -83t120 -61t149 -24q64 0 117.5 18t89 48.5t54.5 69.5t19 82q0 45 -31 82t-81 63t-110 49.5t-120.5 50t-110 57t-81 77t-31.5 103.5q0 65 26.5 122t74.5 99.5t121.5 67.5t163.5 25q130 0 234 -50t151 -123l-74 -75q-35 64 -126 108t-194 44 q-78 0 -138 -26t-91.5 -69t-31.5 -97q0 -38 24.5 -70t64 -53.5t90.5 -44t104 -41t103.5 -45.5t90 -56.5t64 -74t24.5 -98.5q0 -67 -26.5 -128t-75.5 -108.5t-126 -76t-170 -28.5q-143 0 -251.5 47.5t-174.5 139.5z" />
<glyph unicode="t" horiz-adv-x="602" d="M119 958l21 100h176l63 290h116l-64 -290h215l-23 -100h-215l-163 -734q-4 -22 -4 -46q0 -48 27.5 -74.5t80.5 -26.5q56 0 111 40l23 -92q-66 -52 -152 -52q-210 0 -210 178q0 26 6 58l166 749h-174z" />
<glyph unicode="u" horiz-adv-x="1182" d="M119 232q0 41 13 90l161 736h115l-159 -717q-1 -5 -3.5 -17t-4.5 -20t-3.5 -19.5t-1.5 -21.5q0 -94 64 -140t171 -46q93 0 188.5 53.5t170.5 132.5l178 795h114l-235 -1058h-113l35 160q-82 -80 -181 -133.5t-201 -53.5q-140 0 -224 66.5t-84 192.5z" />
<glyph unicode="v" horiz-adv-x="1053" d="M132 1058h123l176 -924l590 924h134l-682 -1058h-128z" />
<glyph unicode="w" horiz-adv-x="1575" d="M153 1058h117l81 -898l500 898h96l98 -898l482 898h127l-578 -1058h-110l-96 905l-498 -905h-109z" />
<glyph unicode="x" horiz-adv-x="1048" d="M-81 0l537 544l-278 514h129l230 -435l423 435h144l-510 -514l301 -544h-130l-248 467l-454 -467h-144z" />
<glyph unicode="y" horiz-adv-x="1053" d="M-101 -408l44 109q39 -19 103 -19q45 0 83 26.5t84 94.5l124 191l-205 1064h123l176 -924l590 924h134l-835 -1290q-64 -100 -135 -148.5t-160 -48.5q-70 0 -126 21z" />
<glyph unicode="z" horiz-adv-x="1027" d="M4 0l17 94l814 864h-618l22 100h773l-19 -92l-818 -865h632l-21 -101h-782z" />
<glyph unicode="{" horiz-adv-x="544" d="M-33 -203q0 34 6 56l110 482q5 26 5 37q0 51 -23.5 85t-62.5 34l19 88q62 0 99 43.5t51 111.5l107 480q31 133 110.5 202.5t194.5 69.5h136l-22 -95h-136q-72 0 -120 -46t-67 -131l-111 -497q-31 -151 -140 -191q63 -33 63 -118q0 -40 -8 -75l-105 -477q-6 -33 -6 -49 q0 -56 36.5 -92.5t91.5 -36.5h123l-23 -94h-107q-88 0 -154.5 59t-66.5 154z" />
<glyph unicode="|" horiz-adv-x="454" d="M226 -44v1549h94v-1549h-94z" />
<glyph unicode="}" horiz-adv-x="544" d="M-175 -416l22 94h134q72 0 120.5 46t67.5 129l111 500q32 150 141 193q-64 29 -64 115q0 39 9 75l105 478q4 26 4 46q0 38 -16.5 68t-45 46.5t-64.5 16.5h-123l21 95h108q88 0 154 -59t66 -154q0 -36 -8 -59l-107 -480q-4 -26 -4 -40q0 -48 23.5 -81.5t61.5 -33.5 l-22 -88q-60 0 -96 -44t-51 -112l-107 -479q-30 -135 -109.5 -203.5t-195.5 -68.5h-135z" />
<glyph unicode="~" horiz-adv-x="1092" d="M151 949q19 84 43.5 156t58.5 138t74.5 112.5t92.5 74t111 27.5q53 0 90.5 -18.5t56.5 -49t32.5 -69t19 -79t14.5 -79.5t20 -69.5t36 -49t61 -18.5q87 0 160 115t123 322l92 -11q-19 -84 -43 -155.5t-58 -139t-74 -114.5t-93 -75.5t-113 -28.5q-47 0 -81.5 15t-55 39.5 t-34 57t-20.5 68t-13 71t-14 67.5t-20.5 57t-35 39.5t-55.5 14.5q-87 0 -161 -114t-122 -318z" />
<glyph unicode="&#xa2;" horiz-adv-x="1081" d="M101 443q0 128 45 246t122.5 204.5t186 138.5t229.5 53l35 153h96l-37 -159q196 -29 289 -187l-88 -66q-72 126 -223 151l-200 -900h27q87 0 161 36.5t126 99.5l65 -79q-74 -78 -161 -119.5t-202 -41.5q-26 0 -37 2l-44 -194h-96l46 208q-156 34 -248 152.5t-92 301.5z M221 441q0 -140 65.5 -230t177.5 -121l197 889q-99 -6 -183.5 -53.5t-139.5 -122t-86 -168.5t-31 -194z" />
<glyph unicode="&#xa3;" horiz-adv-x="1106" d="M2 90q110 43 200.5 112t144.5 155t54 169q0 30 -6 59h-345l21 92h289q-15 27 -45 74t-49 78.5t-35 81.5t-16 101q0 89 40.5 175t108.5 151t164 105t202 40q95 0 183.5 -31t153 -88t85.5 -128l-115 -53q-22 83 -107 137t-196 54q-76 0 -145 -26t-122 -72t-84.5 -116 t-31.5 -152q0 -51 15.5 -99.5t35 -80.5t47.5 -76.5t42 -74.5h322l-20 -92h-276q4 -30 4 -44q0 -57 -24 -115.5t-63 -107t-81.5 -87t-87.5 -66.5q60 17 105 17q49 0 100.5 -15t88.5 -33t85 -33t92 -15q117 0 211 89l35 -102q-124 -104 -250 -104q-55 0 -103.5 10.5t-85.5 26 t-74 30.5t-85 26t-102 11q-99 0 -253 -88z" />
<glyph unicode="&#xa5;" horiz-adv-x="1353" d="M-11 276l20 90h574l57 259h-573l19 92h510l-353 745h140l336 -719l651 719h162l-681 -745h497l-20 -92h-561l-57 -259h559l-20 -90h-559l-61 -276h-127l61 276h-574z" />
<glyph unicode="&#xa8;" horiz-adv-x="573" d="M153 1309q0 36 28 62.5t64 26.5q31 0 52 -20.5t21 -51.5q0 -37 -27.5 -63.5t-64.5 -26.5q-30 0 -51.5 21t-21.5 52zM600 1309q0 36 28 62.5t64 26.5q32 0 52.5 -20.5t20.5 -51.5q0 -37 -27 -63.5t-65 -26.5q-20 0 -36.5 9.5t-26.5 26t-10 37.5z" />
<glyph unicode="&#xa9;" horiz-adv-x="1704" d="M140 732q0 154 60 294t161 241.5t240.5 161t293.5 59.5t294 -59.5t241.5 -161t161.5 -241.5t60 -294q0 -153 -60 -293t-161.5 -241.5t-241.5 -162t-294 -60.5q-103 0 -201 27.5t-180.5 76.5t-152 119t-118.5 153t-76 180.5t-27 200.5zM201 732q0 -140 55.5 -268.5 t148.5 -222t221 -149t269 -55.5t270 55.5t222 149t148.5 222t55.5 268.5q0 141 -55.5 269.5t-149 221.5t-222 148t-269.5 55t-269 -55t-221 -148t-148.5 -221.5t-55.5 -269.5zM431 673q0 89 28.5 171t79 146.5t115.5 112.5t141.5 74t153.5 26q236 0 339 -175l-59 -44 q-19 38 -48 67t-64.5 48t-78 28.5t-89.5 9.5q-80 0 -160 -35t-143 -95t-102.5 -148t-39.5 -186q0 -93 42.5 -171.5t123 -126t183.5 -47.5q69 0 137.5 29t115.5 74l38 -54q-138 -114 -291 -114q-97 0 -177.5 32.5t-133.5 88t-82 130t-29 159.5z" />
<glyph unicode="&#xab;" horiz-adv-x="880" d="M63 533l439 387h134l-448 -399l255 -383h-117zM337 533l439 387h134l-448 -399l255 -383h-117z" />
<glyph unicode="&#xad;" horiz-adv-x="656" d="M52 477l23 106h525l-21 -106h-527z" />
<glyph unicode="&#xae;" horiz-adv-x="1081" d="M184 1019q0 95 36.5 181t99 148t148.5 98.5t180 36.5q96 0 182 -36.5t148 -98.5t98.5 -148t36.5 -181q0 -76 -23.5 -147t-66.5 -128t-100.5 -100t-128.5 -66.5t-148 -23.5q-94 0 -180 37t-147.5 99t-98 148t-36.5 181zM243 1019q0 -82 32 -157t85.5 -129.5t128.5 -87 t157 -32.5q110 0 204 55t149 148.5t55 202.5q0 110 -55 203.5t-149 147.5t-204 54t-202.5 -54t-146.5 -147t-54 -204zM414 751l117 533h199q39 0 73 -15.5t56 -48t22 -76.5q0 -51 -27.5 -93.5t-67 -64.5t-81.5 -22l97 -213h-79l-92 211h-105l-46 -211h-66zM539 1025h151 q49 0 85 32.5t36 77.5q0 41 -26.5 64.5t-65.5 23.5h-136z" />
<glyph unicode="&#xb4;" horiz-adv-x="472" d="M147 1219l407 315h140l-447 -315h-100z" />
<glyph unicode="&#xb8;" horiz-adv-x="433" d="M-195 -333l51 65q34 -36 83 -54.5t98 -18.5q71 0 108 31t37 80q0 33 -23.5 53t-64.5 20q-51 0 -81 -38l-53 35l107 185h84l-90 -150q34 27 75 27q57 0 92 -33.5t35 -92.5q0 -84 -63.5 -137t-166.5 -53q-72 0 -130.5 22.5t-97.5 58.5z" />
<glyph unicode="&#xbb;" horiz-adv-x="880" d="M-25 138l448 399l-254 383h116l263 -394l-439 -388h-134zM249 138l448 399l-254 383h116l263 -394l-439 -388h-134z" />
<glyph unicode="&#x2c6;" horiz-adv-x="547" d="M151 1219l283 315h118l147 -315h-84l-135 247l-239 -247h-90z" />
<glyph unicode="&#x2da;" horiz-adv-x="416" d="M188 1391q0 60 31.5 113.5t85 85.5t113.5 32q84 0 137.5 -54t53.5 -137q0 -94 -68 -162t-162 -68q-84 0 -137.5 53.5t-53.5 136.5zM261 1398q0 -37 14.5 -65.5t42 -45t63.5 -16.5q65 0 111.5 44.5t46.5 108.5q0 57 -33.5 92.5t-89.5 35.5q-63 0 -109 -45.5t-46 -108.5z " />
<glyph unicode="&#x2dc;" horiz-adv-x="671" d="M153 1227q26 132 89 212.5t157 80.5q39 0 67.5 -16.5t44 -41t30.5 -53.5t27.5 -54t34.5 -41.5t52 -16.5q101 0 152 211h80q-28 -133 -90.5 -213.5t-156.5 -80.5q-30 0 -53.5 10t-38 26t-28 36t-22.5 41.5t-20.5 41.5t-23 36t-30 25.5t-41.5 9.5q-100 0 -151 -213h-79z " />
<glyph unicode="&#x401;" horiz-adv-x="1235" d="M63 0l322 1462h928l-25 -114h-801l-119 -541h784l-25 -115h-786l-128 -579h799l-21 -113h-928zM592 1675q0 23 12.5 44t34 33t45.5 12q31 0 51.5 -20.5t20.5 -51.5q0 -37 -27 -63.5t-65 -26.5q-30 0 -51 21t-21 52zM1039 1675q0 23 13 44t34 33t45 12q31 0 51.5 -20.5 t20.5 -51.5q0 -24 -12.5 -45t-34 -33t-45.5 -12q-30 0 -51 21t-21 52z" />
<glyph unicode="&#x402;" horiz-adv-x="1693" d="M255 1348l23 114h1083l-22 -114h-480l-96 -438q193 48 377 48q97 0 172.5 -23.5t123.5 -66.5t75.5 -104t29 -137t-15.5 -165l-5 -13q-26 -120 -82 -213t-130.5 -149.5t-160 -85t-179.5 -28.5l25 115q150 0 257.5 96.5t143.5 264.5l4 13q41 189 -33.5 285t-258.5 96 q-182 0 -370 -46l-173 -797h-126l295 1348h-477z" />
<glyph unicode="&#x403;" horiz-adv-x="1187" d="M63 0l322 1462h928l-25 -114h-801l-299 -1348h-125zM769 1585l408 315h140l-447 -315h-101z" />
<glyph unicode="&#x404;" horiz-adv-x="1472" d="M147 607q0 130 31.5 249.5t87.5 215t132.5 174.5t166.5 131t190.5 80.5t202.5 28.5q192 0 341.5 -81t232.5 -232l-121 -56q-72 131 -192.5 193t-269.5 62q-71 0 -141.5 -18t-135.5 -51t-124 -82.5t-106.5 -111t-83.5 -139t-55 -163.5h849l-25 -115h-842q-3 -26 -3 -81 q0 -156 64.5 -274.5t184.5 -183.5t280 -65q221 0 412 167l90 -75q-108 -104 -240 -155.5t-268 -51.5q-143 0 -264.5 46t-208.5 128t-136 200.5t-49 259.5z" />
<glyph unicode="&#x405;" horiz-adv-x="1272" d="M52 230l92 90q77 -109 201 -170.5t278 -61.5q75 0 138 19.5t104.5 51t70.5 73.5t42 85.5t13 88.5q0 51 -25 94t-67.5 74t-97 58.5t-115 52.5t-121 51t-115.5 58.5t-97 71.5t-67 93t-25 120q0 81 38.5 156.5t103.5 130.5t157 87.5t194 32.5q110 0 209.5 -28.5t174.5 -80 t120 -119.5l-95 -87q-67 98 -179.5 149.5t-240.5 51.5q-94 0 -174.5 -40t-126 -104.5t-45.5 -136.5q0 -46 25 -85.5t67.5 -69t97.5 -56.5t115.5 -52.5t121 -52.5t115.5 -61t97.5 -74.5t67.5 -96.5t25 -122.5t-21 -130.5t-64 -121.5t-103.5 -101t-145.5 -69t-184 -25.5 q-122 0 -234.5 34.5t-195.5 92t-129 130.5z" />
<glyph unicode="&#x406;" horiz-adv-x="487" d="M63 0l322 1462h125l-322 -1462h-125z" />
<glyph unicode="&#x407;" horiz-adv-x="487" d="M63 0l322 1462h125l-322 -1462h-125zM193 1675q0 17 7.5 33.5t20 29t29.5 19.5t35 7q31 0 51.5 -20.5t20.5 -51.5q0 -37 -27 -63.5t-65 -26.5q-30 0 -51 21t-21 52zM640 1675q0 23 13 44t34 33t45 12q31 0 52 -20.5t21 -51.5q0 -37 -27.5 -63.5t-64.5 -26.5 q-30 0 -51.5 21t-21.5 52z" />
<glyph unicode="&#x408;" horiz-adv-x="1029" d="M-42 167l84 88q43 -81 117 -124t176 -43q145 0 236 90t126 245l227 1039h128l-228 -1039q-50 -225 -173.5 -337.5t-309.5 -112.5q-127 0 -228 50t-155 144z" />
<glyph unicode="&#x409;" horiz-adv-x="2302" d="M-46 -27l25 115q58 0 105.5 15.5t98.5 58t98.5 115.5t99.5 188t108 275l251 722h822l-134 -607h406q99 0 176 -32.5t121.5 -88.5t62 -129.5t4.5 -157.5q-10 -68 -37.5 -132t-74 -121.5t-107 -100.5t-143 -68t-175.5 -25h-546l296 1348h-583l-217 -618 q-48 -139 -95.5 -248.5t-92 -188.5t-91.5 -136t-90 -92.5t-92.5 -56t-95 -28t-100.5 -7.5zM1265 113h407q154 0 261 92.5t131 233.5q15 87 -10 155.5t-88.5 107t-155.5 38.5h-407z" />
<glyph unicode="&#x40a;" horiz-adv-x="2302" d="M63 0l320 1462h125l-142 -653h924l145 653h127l-144 -653h429q94 0 167 -31t115.5 -84t59.5 -123t5 -148q-11 -65 -36.5 -126t-69.5 -115t-101.5 -94.5t-135 -64t-166.5 -23.5h-570l152 694h-926l-153 -694h-125zM1265 113h433q142 0 241 85t123 216q22 122 -43 201 t-194 79h-431z" />
<glyph unicode="&#x40b;" horiz-adv-x="1710" d="M255 1348l23 114h1083l-22 -114h-480l-96 -438q193 48 377 48q97 0 172.5 -23t123.5 -65t76 -101.5t30 -133t-15 -158.5l-103 -477h-127l104 477q39 178 -37 272t-258 94t-370 -46l-173 -797h-126l295 1348h-477z" />
<glyph unicode="&#x40c;" horiz-adv-x="1284" d="M63 0l322 1462h125l-173 -785l868 785h171l-776 -697l513 -765h-149l-456 697l-205 -187l-115 -510h-125zM767 1585l408 315h140l-447 -315h-101z" />
<glyph unicode="&#x40e;" horiz-adv-x="1353" d="M-61 103l88 94q61 -109 176 -109q41 0 73 10t66.5 39t66 65.5t82.5 102.5l78 103l-335 1054h136l291 -945l709 945h153l-925 -1215q-42 -56 -76 -95.5t-74 -75t-79 -57t-85.5 -34t-99.5 -12.5q-87 0 -151 34t-94 96zM535 1744l72 55q38 -77 111.5 -120.5t173.5 -43.5 q67 0 132 20t121 56.5t104 87.5l55 -55q-86 -90 -197.5 -141t-228.5 -51q-115 0 -205 51t-138 141z" />
<glyph unicode="&#x40f;" horiz-adv-x="1539" d="M63 0l320 1462h125l-295 -1349h927l295 1349h127l-320 -1462h-527l-60 -278h-126l58 278h-524z" />
<glyph unicode="&#x410;" horiz-adv-x="1417" d="M-86 0l921 1462h156l276 -1462h-138l-69 360h-771l-224 -360h-151zM355 473h693l-159 855z" />
<glyph unicode="&#x411;" d="M63 0l320 1462h912l-24 -114h-784l-110 -493h388q83 0 155.5 -30t122 -80t77.5 -116.5t28 -139.5q0 -70 -18.5 -137.5t-60.5 -132t-103 -112.5t-152.5 -77.5t-202.5 -29.5h-548zM213 113h410q95 0 171 30.5t123 81.5t72 116.5t25 138.5q0 106 -77.5 183t-191.5 77h-394z " />
<glyph unicode="&#x412;" horiz-adv-x="1344" d="M63 0l322 1462h564q99 0 181 -40.5t131.5 -116.5t49.5 -174q0 -77 -28 -147.5t-74.5 -121.5t-108.5 -84.5t-130 -41.5q92 -23 152.5 -110t60.5 -192q0 -67 -18.5 -130t-58.5 -118.5t-97.5 -96.5t-140 -65t-180.5 -24h-625zM213 113h481q58 0 108.5 13t89.5 35.5t70 53.5 t51 67.5t30.5 76.5t10.5 82q0 110 -72 180.5t-196 70.5h-445zM368 807h478q71 0 127.5 18t93 48.5t61 71.5t35 83.5t10.5 88.5q0 98 -73.5 164.5t-179.5 66.5h-433z" />
<glyph unicode="&#x413;" horiz-adv-x="1187" d="M63 0l322 1462h928l-25 -114h-801l-299 -1348h-125z" />
<glyph unicode="&#x414;" horiz-adv-x="1570" d="M-101 -270l82 377q43 3 77.5 10.5t72.5 26t70 48t68 76.5t70 112.5t72 155.5t78 204l251 722h822l-297 -1349h131l-83 -383h-125l59 270h-1164l-58 -270h-126zM228 113h912l271 1235h-583l-217 -618q-94 -268 -186 -412t-197 -205z" />
<glyph unicode="&#x415;" horiz-adv-x="1235" d="M63 0l322 1462h928l-25 -114h-801l-119 -541h784l-25 -115h-786l-128 -579h799l-21 -113h-928z" />
<glyph unicode="&#x416;" horiz-adv-x="1953" d="M-65 0l847 765l-468 697h148l491 -743l162 743h127l-157 -715l786 715h174l-776 -697l515 -765h-149l-456 694l-129 -113l-128 -581h-127l125 577l-67 105l-748 -682h-170z" />
<glyph unicode="&#x417;" horiz-adv-x="1255" d="M11 278l100 67q51 -119 171 -188t277 -69q93 0 170.5 26.5t129 73.5t79.5 111t28 140q0 116 -100 185.5t-274 69.5h-261l26 115h333q75 0 146 18.5t129.5 54.5t94.5 94.5t36 132.5q0 111 -103.5 186t-273.5 75q-233 0 -397 -153l-61 87q55 55 128.5 95t160.5 62t175 22 q145 0 256.5 -41t176.5 -124t65 -198q0 -67 -25.5 -127t-68 -103.5t-97 -76t-113 -50t-114.5 -20.5q57 -10 108.5 -36t91 -65.5t63 -94t23.5 -116.5q0 -74 -24 -142.5t-70.5 -125.5t-110.5 -99.5t-148.5 -66.5t-178.5 -24q-194 0 -346 85t-202 220z" />
<glyph unicode="&#x418;" horiz-adv-x="1531" d="M63 0l322 1462h128l-279 -1255l1192 1255h128l-322 -1462h-128l283 1275l-1201 -1275h-123z" />
<glyph unicode="&#x419;" horiz-adv-x="1531" d="M63 0l322 1462h128l-279 -1255l1192 1255h128l-322 -1462h-128l283 1275l-1201 -1275h-123zM633 1744l72 55q26 -51 66.5 -87.5t96.5 -56.5t123 -20q100 0 192.5 43.5t164.5 120.5l55 -55q-86 -90 -198 -141t-228 -51q-77 0 -144 23t-117.5 66.5t-82.5 102.5z" />
<glyph unicode="&#x41a;" horiz-adv-x="1284" d="M63 0l322 1462h125l-173 -785l868 785h171l-776 -697l513 -765h-149l-456 697l-205 -187l-115 -510h-125z" />
<glyph unicode="&#x41b;" horiz-adv-x="1539" d="M-48 -27l23 115q60 0 108 15.5t99 58t98.5 115.5t100 188t108.5 275l251 722h822l-320 -1462h-127l296 1348h-583l-217 -618q-42 -122 -83.5 -221t-82 -174t-79 -132.5t-79.5 -97t-79.5 -65.5t-82.5 -40.5t-84.5 -20.5t-88.5 -6z" />
<glyph unicode="&#x41c;" horiz-adv-x="1730" d="M63 0l322 1462h180l228 -1219l767 1219h193l-322 -1462h-127l287 1304l-820 -1304h-48l-246 1304l-289 -1304h-125z" />
<glyph unicode="&#x41d;" horiz-adv-x="1539" d="M63 0l322 1462h125l-142 -653h925l144 653h127l-322 -1462h-127l154 694h-928l-153 -694h-125z" />
<glyph unicode="&#x41e;" horiz-adv-x="1673" d="M147 607q0 122 29 237t81.5 211t127 177t164 136.5t194 86.5t215.5 31q108 0 206.5 -26.5t180 -79.5t141.5 -128t93 -177t33 -222q0 -105 -21 -205t-61 -186.5t-95.5 -162.5t-125.5 -135.5t-149.5 -102.5t-170 -65.5t-184.5 -22.5q-110 0 -208.5 26.5t-180.5 79.5 t-142.5 128t-93.5 177.5t-33 222.5zM282 611q0 -100 27.5 -185t76 -147t114.5 -105.5t145 -64.5t166 -21q131 0 252.5 57t213 156t146 242.5t54.5 305.5q0 124 -42 224.5t-115 165t-168.5 99t-204.5 34.5q-132 0 -253.5 -57.5t-212 -156.5t-145 -242t-54.5 -305z" />
<glyph unicode="&#x41f;" horiz-adv-x="1539" d="M63 0l322 1462h1179l-322 -1462h-127l296 1348h-924l-299 -1348h-125z" />
<glyph unicode="&#x420;" d="M63 0l322 1462h514q84 0 156.5 -30t121.5 -80t77 -117t28 -139q0 -70 -18.5 -138t-61 -132t-103.5 -112.5t-154 -77.5t-205 -29h-416l-136 -607h-125zM349 721h407q95 0 171 30t123.5 81t72.5 116.5t25 138.5q0 106 -77.5 183.5t-192.5 77.5h-391z" />
<glyph unicode="&#x421;" horiz-adv-x="1472" d="M147 607q0 130 31.5 249.5t87.5 215t132.5 174.5t166.5 131t190.5 80.5t202.5 28.5q192 0 341.5 -81t232.5 -232l-121 -56q-72 131 -192.5 193t-269.5 62q-62 0 -124 -14t-120.5 -39.5t-112.5 -64.5t-101 -87.5t-85.5 -110t-65.5 -130t-42.5 -149t-15.5 -166.5 q0 -156 64.5 -274.5t184.5 -183.5t280 -65q221 0 412 167l90 -75q-108 -104 -240 -155.5t-268 -51.5q-143 0 -264.5 46t-208.5 128t-136 200.5t-49 259.5z" />
<glyph unicode="&#x422;" horiz-adv-x="1235" d="M257 1348l23 114h1083l-24 -114h-478l-298 -1348h-126l297 1348h-477z" />
<glyph unicode="&#x423;" horiz-adv-x="1353" d="M-61 103l88 94q61 -109 176 -109q41 0 73 10t66.5 39t66 65.5t82.5 102.5l78 103l-335 1054h136l291 -945l709 945h153l-925 -1215q-42 -56 -76 -95.5t-74 -75t-79 -57t-85.5 -34t-99.5 -12.5q-87 0 -151 34t-94 96z" />
<glyph unicode="&#x424;" horiz-adv-x="1719" d="M160 644q0 134 62.5 256t170 212t260.5 145t326 60l33 145h125l-33 -147q265 -20 407.5 -153.5t142.5 -346.5q0 -133 -62.5 -255t-170.5 -212.5t-261 -146t-325 -61.5l-30 -140h-126l34 142q-267 20 -410 154t-143 348zM293 644q0 -163 116.5 -268t326.5 -119l217 946 q-145 -8 -269 -54t-209.5 -120t-133.5 -173t-48 -212zM861 257q115 6 217.5 37t182.5 82t138.5 118t89.5 149.5t31 171.5q0 164 -116.5 268.5t-324.5 119.5z" />
<glyph unicode="&#x425;" horiz-adv-x="1412" d="M-79 0l752 759l-397 703h147l344 -621l605 621h171l-708 -719l418 -743h-142l-373 661l-646 -661h-171z" />
<glyph unicode="&#x426;" horiz-adv-x="1570" d="M63 0l320 1462h125l-295 -1349h927l295 1349h127l-297 -1349h131l-83 -383h-125l59 270h-1184z" />
<glyph unicode="&#x427;" horiz-adv-x="1303" d="M240 928.5q-2 73.5 15 158.5l82 375h125l-81 -375q-39 -177 37.5 -271.5t258.5 -94.5q181 0 368 46l153 695h126l-320 -1462h-126l143 655q-197 -48 -379 -48q-98 0 -173.5 22.5t-123.5 65t-75.5 101.5t-29.5 132.5z" />
<glyph unicode="&#x428;" horiz-adv-x="2107" d="M63 0l320 1462h125l-295 -1349h684l295 1349h127l-296 -1349h684l296 1349h125l-320 -1462h-1745z" />
<glyph unicode="&#x429;" horiz-adv-x="2135" d="M63 0l320 1462h125l-295 -1349h684l295 1349h127l-296 -1349h684l296 1349h125l-296 -1349h131l-83 -383h-127l60 270h-1750z" />
<glyph unicode="&#x42a;" horiz-adv-x="1623" d="M255 1348l23 114h605l-134 -607h388q68 0 128.5 -19.5t106.5 -53.5t79.5 -80t51 -100.5t17.5 -112.5q0 -70 -18.5 -137.5t-60 -132t-102.5 -112.5t-153 -77.5t-204 -29.5h-545l295 1348h-477zM585 113h408q96 0 172 30.5t124 81.5t73 116.5t25 138.5q0 106 -78 183 t-194 77h-390z" />
<glyph unicode="&#x42b;" horiz-adv-x="1652" d="M63 0l320 1462h125l-131 -607h386q85 0 158 -30t122 -80t77 -116.5t28 -139.5q0 -49 -9.5 -98t-30 -97.5t-51 -91.5t-75 -80.5t-98.5 -64t-124.5 -42t-150.5 -15.5h-546zM213 113h408q95 0 171.5 30.5t124 81.5t72.5 116.5t25 138.5q0 106 -78 183t-196 77h-389zM1227 0 l320 1462h125l-320 -1462h-125z" />
<glyph unicode="&#x42c;" d="M63 0l320 1462h125l-131 -607h386q85 0 158 -30t122 -80t77 -116.5t28 -139.5q0 -49 -9.5 -98t-30 -97.5t-51 -91.5t-75 -80.5t-98.5 -64t-124.5 -42t-150.5 -15.5h-546zM213 113h408q95 0 171.5 30.5t124 81.5t72.5 116.5t25 138.5q0 106 -78 183t-196 77h-389z" />
<glyph unicode="&#x42d;" horiz-adv-x="1472" d="M27 287l117 54q73 -130 193.5 -191.5t271.5 -61.5q54 0 108.5 10.5t106.5 30.5t101.5 50.5t94 69t83 87t69.5 103.5t53.5 119.5t34.5 133.5h-829l25 115h815q2 13 2 42q0 155 -64 273.5t-184 184t-280 65.5q-222 0 -412 -167l-90 77q108 102 241.5 153t269.5 51 q142 0 263 -45.5t207.5 -127.5t135.5 -201t49 -259q0 -130 -31.5 -250t-87 -215.5t-132 -174t-166 -131t-190 -81t-202.5 -28.5q-194 0 -342.5 81.5t-230.5 232.5z" />
<glyph unicode="&#x42e;" horiz-adv-x="2133" d="M63 0l320 1462h125l-142 -653h278q39 144 117.5 268t185.5 215t244 142.5t286 51.5q152 0 272.5 -54.5t195 -150.5t104.5 -229.5t6 -288.5q-24 -164 -99.5 -309t-187 -251.5t-259 -168t-308.5 -61.5q-153 0 -274 54.5t-195.5 150t-104 229t-4.5 287.5h-282l-153 -694 h-125zM756 701q-30 -179 16 -318t161 -217t284 -78q130 0 250 51t212 140t156 213.5t87 266.5q30 179 -16.5 318.5t-162 217t-281.5 77.5q-132 0 -252.5 -50.5t-212 -139.5t-155 -213t-86.5 -268z" />
<glyph unicode="&#x42f;" horiz-adv-x="1301" d="M-9 0l561 613q-56 8 -110.5 35t-102 70.5t-76.5 110t-29 144t22 149.5t67 134t109 107.5t153.5 72t194.5 26.5h544l-325 -1462h-125l134 605h-307l-546 -605h-164zM370 979q0 -112 83.5 -186t203.5 -74h376l138 629h-408q-93 0 -168.5 -30t-124 -81t-74.5 -117t-26 -141z " />
<glyph unicode="&#x430;" d="M98 408q0 88 18.5 173.5t52 160.5t83 138.5t110 108.5t136 70.5t157.5 25.5q126 0 225.5 -56t156.5 -151l37 180h116l-234 -1058h-117l37 160q-68 -87 -161 -137t-202 -50q-186 0 -300.5 116.5t-114.5 318.5zM224 427q0 -162 87 -256t233 -94q71 0 142 28.5t125.5 73.5 t91.5 101l111 509q-41 83 -134 138t-216 55q-77 0 -147 -30.5t-122.5 -84t-91.5 -123.5t-59 -151.5t-20 -165.5z" />
<glyph unicode="&#x431;" horiz-adv-x="1263" d="M98 439q0 90 25 185.5t52 164.5q34 90 75 163.5t90.5 132t106.5 103t125 76.5t143 52.5t163 31.5q171 28 239.5 53t76.5 61h108q-6 -31 -24.5 -57.5t-41.5 -45.5t-59.5 -35.5t-68 -27t-79 -21t-80.5 -16t-83 -12.5q-91 -14 -165 -35t-131 -50.5t-101 -63t-79.5 -78 t-61 -89.5t-50.5 -103q75 116 186 186.5t249 70.5q198 0 316.5 -127t118.5 -337q0 -125 -44.5 -242.5t-121 -207t-186 -144t-231.5 -54.5q-213 0 -340 127.5t-127 338.5zM224 443q0 -168 91 -267t252 -99q78 0 149 29.5t126.5 81.5t96.5 119.5t62.5 147t21.5 160.5 q0 168 -91 267.5t-253 99.5q-96 0 -182 -45.5t-145.5 -121t-93.5 -173t-34 -199.5z" />
<glyph unicode="&#x432;" horiz-adv-x="1184" d="M59 0l232 1058h478q48 0 91 -9t79 -28t62.5 -46.5t41.5 -66t15 -84.5q0 -104 -64 -183t-174 -102q65 -25 107.5 -86.5t42.5 -136.5q0 -139 -96.5 -227.5t-262.5 -88.5h-552zM195 103h416q105 0 173.5 62.5t68.5 156.5q0 75 -51.5 124t-142.5 49h-379zM303 596h418 q67 0 117 30t73.5 77t23.5 102q0 74 -56 113.5t-145 39.5h-351z" />
<glyph unicode="&#x433;" horiz-adv-x="930" d="M59 0l232 1058h696l-25 -100h-579l-210 -958h-114z" />
<glyph unicode="&#x434;" horiz-adv-x="1211" d="M-138 -270l79 364q42 5 77.5 26.5t75 69t80.5 132t85 209.5l186 527h675l-208 -955h125l-81 -373h-117l62 270h-864l-62 -270h-113zM117 103h678l187 855h-459l-155 -441q-63 -177 -123 -275t-128 -139z" />
<glyph unicode="&#x435;" horiz-adv-x="1242" d="M101 441q0 130 46 249t124 205.5t187 138t230 51.5q104 0 189 -35t142 -96.5t87.5 -145.5t30.5 -181q0 -62 -17 -134h-894q-5 -25 -5 -62q0 -74 25 -138t72 -113.5t121.5 -78t169.5 -28.5q84 0 168.5 28.5t151.5 84.5l44 -83q-75 -58 -172 -94t-196 -36q-118 0 -213 34.5 t-159 96t-98 148t-34 189.5zM236 583h789q3 16 3 48q0 159 -93 257.5t-260 98.5q-104 0 -199 -55.5t-158 -148t-82 -200.5z" />
<glyph unicode="&#x436;" horiz-adv-x="1522" d="M-77 0l618 581l-388 477h142l410 -510l112 510h116l-107 -491l611 491h161l-599 -477l364 -581h-142l-318 508l-110 -85l-92 -423h-116l92 423l-64 77l-527 -500h-163z" />
<glyph unicode="&#x437;" horiz-adv-x="1136" d="M25 157l73 69q128 -153 391 -153q98 0 181.5 28t134 81t50.5 119q0 60 -45 103.5t-116 64t-159 20.5h-255l23 96h245q87 0 158.5 13.5t127 40.5t86.5 71.5t31 102.5q0 83 -76.5 128.5t-213.5 45.5q-242 0 -427 -138l-54 78q210 158 489 158q135 0 227.5 -32t137.5 -90.5 t45 -140.5q0 -57 -24.5 -105.5t-63 -81t-87 -56t-94.5 -35t-89 -13.5q43 -6 85 -23t80.5 -44.5t62.5 -72t24 -98.5q0 -48 -18.5 -92.5t-51.5 -79t-78.5 -63t-99.5 -47t-114.5 -28.5t-123.5 -10q-162 0 -279 48.5t-183 135.5z" />
<glyph unicode="&#x438;" horiz-adv-x="1182" d="M59 0l232 1058h115l-195 -880l797 880h112l-233 -1058h-113l194 895l-799 -895h-110z" />
<glyph unicode="&#x439;" horiz-adv-x="1182" d="M59 0l232 1058h115l-195 -880l797 880h112l-233 -1058h-113l194 895l-799 -895h-110zM379 1378l73 55q38 -77 111 -120.5t173 -43.5t192.5 43.5t165.5 120.5l54 -55q-86 -90 -197 -141t-228 -51q-115 0 -205.5 51t-138.5 141z" />
<glyph unicode="&#x43a;" horiz-adv-x="1106" d="M59 0l234 1058h115l-134 -596l749 596h160l-600 -477l364 -581h-140l-318 510l-246 -192l-70 -318h-114z" />
<glyph unicode="&#x43b;" horiz-adv-x="1182" d="M-83 -27l22 100q79 0 155.5 106t164.5 352l186 527h675l-233 -1058h-113l208 958h-459l-155 -441q-70 -200 -140 -320t-145 -172t-166 -52z" />
<glyph unicode="&#x43c;" horiz-adv-x="1353" d="M59 0l232 1058h150l155 -859l533 859h161l-232 -1058h-115l197 903l-559 -903h-42l-169 903l-197 -903h-114z" />
<glyph unicode="&#x43d;" horiz-adv-x="1182" d="M59 0l242 1058h113l-103 -456h599l104 456h115l-242 -1058h-113l113 500h-600l-114 -500h-114z" />
<glyph unicode="&#x43e;" d="M98 439q0 124 45 241.5t121 207t185.5 143.5t232.5 54q213 0 339.5 -127t126.5 -337q0 -125 -44.5 -242.5t-121 -207t-186 -144t-231.5 -54.5q-213 0 -340 127.5t-127 338.5zM224 443q0 -168 91 -267t252 -99q78 0 149 29.5t126.5 81.5t96.5 119.5t62.5 147t21.5 160.5 q0 168 -91 267.5t-253 99.5q-96 0 -182 -45.5t-145.5 -121t-93.5 -173t-34 -199.5z" />
<glyph unicode="&#x43f;" horiz-adv-x="1182" d="M59 0l242 1058h828l-242 -1058h-113l217 958h-598l-220 -958h-114z" />
<glyph unicode="&#x440;" horiz-adv-x="1242" d="M-31 -403l324 1461h115l-36 -159q44 57 99 98t123 64.5t142 23.5q184 0 298 -117t114 -320q0 -105 -25.5 -205t-74 -185t-115 -149t-154.5 -100t-185 -36q-127 0 -225.5 56t-155.5 151l-130 -583h-114zM232 270q42 -84 135 -138.5t216 -54.5q78 0 148 30.5t122.5 84 t91 123t58.5 150.5t20 164q0 162 -87.5 257.5t-232.5 95.5q-106 0 -202 -58.5t-156 -145.5z" />
<glyph unicode="&#x441;" horiz-adv-x="1081" d="M101 443q0 103 29 200.5t82.5 176.5t125.5 139t162.5 93t187.5 33q265 0 379 -193l-88 -66q-30 52 -75.5 87.5t-98.5 52t-113 16.5q-85 0 -160 -29.5t-131 -81t-97 -120t-62 -148t-21 -162.5q0 -117 48 -200.5t128.5 -123.5t185.5 -40q87 0 161 36.5t126 99.5l65 -79 q-74 -78 -161 -119.5t-202 -41.5q-102 0 -188 31.5t-149 90.5t-98.5 148t-35.5 200z" />
<glyph unicode="&#x442;" horiz-adv-x="856" d="M151 958l22 100h739l-25 -100h-310l-211 -958h-113l207 958h-309z" />
<glyph unicode="&#x443;" horiz-adv-x="1053" d="M-101 -408l44 109q39 -19 103 -19q45 0 83 26.5t84 94.5l124 191l-205 1064h123l176 -924l590 924h134l-835 -1290q-64 -100 -135 -148.5t-160 -48.5q-70 0 -126 21z" />
<glyph unicode="&#x444;" horiz-adv-x="1691" d="M101 374q0 102 22 204.5t65 193t100 161t131.5 111.5t155.5 41q100 0 177.5 -54t110.5 -144l128 575h113l-122 -563q136 186 304 186q98 0 166.5 -54t100.5 -143t32 -204q0 -101 -22.5 -204t-65.5 -193.5t-100 -161t-131.5 -111.5t-154.5 -41q-101 0 -178.5 54 t-110.5 144l-128 -574h-113l122 563q-131 -187 -302 -187q-98 0 -167 54t-101 143t-32 204zM219 387q0 -148 59.5 -229t164.5 -81q82 0 154 52.5t131 138.5l115 521q-23 79 -92 136t-159 57q-80 0 -150.5 -53.5t-118.5 -139t-76 -191.5t-28 -211zM843 270q21 -80 91 -136.5 t162 -56.5q63 0 121.5 35t103.5 94.5t78.5 135.5t51 161.5t17.5 169.5q0 147 -60 228t-166 81q-147 0 -284 -189z" />
<glyph unicode="&#x445;" horiz-adv-x="1048" d="M-81 0l537 544l-278 514h129l230 -435l423 435h144l-510 -514l301 -544h-130l-248 467l-454 -467h-144z" />
<glyph unicode="&#x446;" horiz-adv-x="1211" d="M59 0l232 1058h115l-211 -955h598l213 955h114l-210 -955h127l-81 -373h-117l62 270h-842z" />
<glyph unicode="&#x447;" horiz-adv-x="1171" d="M207 725l73 333h115l-69 -307q-12 -55 -13 -98t9 -74.5t29 -52.5t49 -33.5t66 -18t84 -5.5q83 0 176 21t152 51l117 517h114l-233 -1058h-113l96 447q-73 -34 -171 -56.5t-184 -22.5q-197 0 -268 83t-29 274z" />
<glyph unicode="&#x448;" horiz-adv-x="1702" d="M59 0l232 1058h115l-211 -955h499l213 955h114l-210 -955h502l212 955h114l-232 -1058h-1348z" />
<glyph unicode="&#x449;" horiz-adv-x="1737" d="M59 0l232 1058h115l-211 -955h499l213 955h114l-210 -955h502l212 955h114l-211 -955h128l-82 -373h-115l61 270h-1361z" />
<glyph unicode="&#x44a;" horiz-adv-x="1307" d="M151 958l22 100h425l-96 -431h395q97 0 164 -40.5t93.5 -108t13.5 -152.5q-9 -65 -40 -124t-79 -104t-117 -71.5t-148 -26.5h-531l207 958h-309zM387 103h406q103 0 171.5 60t83.5 157q16 94 -28 150t-146 56h-394z" />
<glyph unicode="&#x44b;" horiz-adv-x="1498" d="M59 0l232 1058h115l-97 -431h368q140 0 220 -73t80 -194q0 -58 -16.5 -111t-48.5 -98t-76.5 -79t-104 -53t-126.5 -19h-546zM195 103h420q108 0 175 71.5t67 178.5q0 81 -52.5 127t-149.5 46h-368zM1087 0l232 1058h116l-232 -1058h-116z" />
<glyph unicode="&#x44c;" horiz-adv-x="1114" d="M59 0l232 1058h115l-97 -431h368q140 0 220 -73t80 -194q0 -58 -16.5 -111t-48.5 -98t-76.5 -79t-104 -53t-126.5 -19h-546zM195 103h420q108 0 175 71.5t67 178.5q0 81 -52.5 127t-149.5 46h-368z" />
<glyph unicode="&#x44d;" horiz-adv-x="1081" d="M77 167l83 63q45 -78 121.5 -117.5t167.5 -39.5t170 32.5t136.5 89t97 131.5t57.5 161h-577l22 103h567v25q0 118 -47.5 203.5t-128 127t-183.5 41.5q-87 0 -163 -37t-128 -99l-63 73q74 78 161.5 119.5t201.5 41.5q103 0 189 -31.5t149 -90.5t98 -148t35 -200 q0 -129 -45.5 -247t-123.5 -205t-187.5 -138.5t-230.5 -51.5q-264 0 -379 194z" />
<glyph unicode="&#x44e;" horiz-adv-x="1643" d="M59 0l232 1058h115l-101 -460h203q24 101 76 189.5t124 154.5t166 104.5t197 38.5q215 0 342.5 -127t127.5 -337q0 -125 -44.5 -242.5t-121 -207t-186 -144t-231.5 -54.5q-213 0 -340 127.5t-127 338.5q0 39 2 59h-211l-109 -498h-114zM615 443q0 -168 91.5 -267 t253.5 -99q77 0 148.5 29.5t126.5 81.5t96 119.5t63 147t22 160.5q0 168 -92 267.5t-253 99.5q-97 0 -183 -45.5t-145 -121t-93.5 -173t-34.5 -199.5z" />
<glyph unicode="&#x44f;" horiz-adv-x="1175" d="M27 0l394 441q-103 15 -164.5 82t-61.5 176q0 57 16 110.5t48 98.5t76 78.5t103.5 52.5t126.5 19h550l-232 -1058h-116l94 431h-317l-375 -431h-142zM314 705q0 -79 48.5 -125.5t128.5 -46.5h392l94 425h-421q-72 0 -128 -34t-85 -91.5t-29 -127.5z" />
<glyph unicode="&#x451;" horiz-adv-x="1242" d="M101 441q0 130 46 249t124 205.5t187 138t230 51.5q104 0 189 -35t142 -96.5t87.5 -145.5t30.5 -181q0 -62 -17 -134h-894q-5 -25 -5 -62q0 -74 25 -138t72 -113.5t121.5 -78t169.5 -28.5q84 0 168.5 28.5t151.5 84.5l44 -83q-75 -58 -172 -94t-196 -36q-118 0 -213 34.5 t-159 96t-98 148t-34 189.5zM236 583h789q3 16 3 48q0 159 -93 257.5t-260 98.5q-104 0 -199 -55.5t-158 -148t-82 -200.5zM491 1309q0 36 28 62.5t64 26.5q31 0 51.5 -20.5t20.5 -51.5q0 -37 -27.5 -63.5t-64.5 -26.5q-30 0 -51 21t-21 52zM938 1309q0 36 28 62.5t64 26.5 q32 0 52 -20.5t20 -51.5q0 -37 -27 -63.5t-65 -26.5q-30 0 -51 21t-21 52z" />
<glyph unicode="&#x452;" horiz-adv-x="1184" d="M61 0l257 1179h-158l18 84h157l46 199h114l-43 -199h350l-16 -84h-355l-59 -280q79 75 196 130.5t225 55.5q165 0 231.5 -82.5t29.5 -257.5l-195 -881q-31 -144 -122.5 -218.5t-230.5 -74.5q-69 0 -113.5 19t-83.5 61l68 90q55 -72 140 -72q82 0 144 48.5t84 146.5 l186 857q7 30 10 56.5t2 48.5t-5.5 41t-12 34t-18 27t-24.5 21t-30 15.5t-35.5 10.5t-39.5 5.5t-44 1.5q-98 0 -205 -53t-178 -129l-176 -800h-114z" />
<glyph unicode="&#x453;" horiz-adv-x="930" d="M59 0l232 1058h696l-25 -100h-579l-210 -958h-114zM567 1219l408 315h140l-446 -315h-102z" />
<glyph unicode="&#x454;" horiz-adv-x="1081" d="M101 443q0 103 29 200.5t82.5 176.5t125.5 139t162.5 93t187.5 33q265 0 379 -193l-83 -62q-44 77 -121.5 117t-168.5 40q-88 0 -165.5 -31.5t-135 -85.5t-97.5 -125.5t-60 -154.5h577l-22 -103h-570v-44q0 -118 48 -203t128.5 -126t183.5 -41q86 0 162 37t129 99l63 -75 q-74 -78 -161 -119.5t-202 -41.5q-102 0 -188 31.5t-149 90.5t-98.5 148t-35.5 200z" />
<glyph unicode="&#x455;" horiz-adv-x="1005" d="M17 160l81 79q29 -46 78 -83t120 -61t149 -24q64 0 117.5 18t89 48.5t54.5 69.5t19 82q0 45 -31 82t-81 63t-110 49.5t-120.5 50t-110 57t-81 77t-31.5 103.5q0 65 26.5 122t74.5 99.5t121.5 67.5t163.5 25q130 0 234 -50t151 -123l-74 -75q-35 64 -126 108t-194 44 q-78 0 -138 -26t-91.5 -69t-31.5 -97q0 -38 24.5 -70t64 -53.5t90.5 -44t104 -41t103.5 -45.5t90 -56.5t64 -74t24.5 -98.5q0 -67 -26.5 -128t-75.5 -108.5t-126 -76t-170 -28.5q-143 0 -251.5 47.5t-174.5 139.5z" />
<glyph unicode="&#x456;" horiz-adv-x="468" d="M59 0l234 1058h115l-235 -1058h-114zM316 1302q0 42 30.5 69t67.5 27q34 0 56.5 -22.5t22.5 -54.5q0 -41 -30.5 -68.5t-67.5 -27.5q-33 0 -56 23t-23 54z" />
<glyph unicode="&#x457;" horiz-adv-x="468" d="M59 0l234 1058h115l-235 -1058h-114zM101 1309q0 23 12.5 44t34 33t45.5 12q31 0 51.5 -20.5t20.5 -51.5q0 -37 -27 -63.5t-65 -26.5q-19 0 -36 9.5t-26.5 26t-9.5 37.5zM548 1309q0 36 28 62.5t64 26.5q31 0 52 -20.5t21 -51.5q0 -37 -27.5 -63.5t-64.5 -26.5 q-30 0 -51.5 21t-21.5 52z" />
<glyph unicode="&#x458;" horiz-adv-x="468" d="M-397 -337l62 82q26 -33 68.5 -54.5t88.5 -21.5q79 0 131 47t76 148l264 1194h115l-266 -1194q-22 -99 -61 -163t-99.5 -97t-144.5 -33q-75 0 -136 23.5t-98 68.5zM316 1302q0 42 30.5 69t67.5 27q34 0 56.5 -22.5t22.5 -54.5q0 -41 -30.5 -68.5t-67.5 -27.5 q-33 0 -56 23t-23 54z" />
<glyph unicode="&#x459;" horiz-adv-x="1831" d="M-86 -27l23 100q80 0 157 105.5t165 352.5l186 527h675l-95 -431h366q140 0 220.5 -73t80.5 -194q0 -72 -26.5 -137t-73 -114.5t-117 -79t-154.5 -29.5h-547l208 958h-459l-155 -441q-70 -200 -140.5 -320t-145.5 -172t-168 -52zM910 103h420q109 0 175 71t66 179 q0 82 -52 127.5t-149 45.5h-368z" />
<glyph unicode="&#x45a;" horiz-adv-x="1831" d="M59 0l232 1058h115l-101 -460h600l101 460h114l-101 -460h386q133 0 210 -69.5t77 -183.5q0 -69 -25 -131t-70 -110t-113 -76t-148 -28h-562l109 498h-601l-109 -498h-114zM910 103h435q101 0 163.5 66.5t62.5 165.5q0 50 -21.5 86.5t-64 56.5t-103.5 20h-385z" />
<glyph unicode="&#x45b;" horiz-adv-x="1184" d="M61 0l259 1179h-155l17 84h157l44 199h115l-44 -199h355l-20 -84h-352l-63 -280q82 80 181 133t201 53q92 0 160.5 -28t108.5 -87t40 -144q0 -41 -13 -90l-163 -736h-113l157 719q14 63 14 76q0 48 -17.5 84.5t-50 58.5t-74.5 33t-95 11q-91 0 -186 -53.5t-173 -133.5 l-176 -795h-114z" />
<glyph unicode="&#x45c;" horiz-adv-x="1106" d="M59 0l234 1058h115l-134 -596l749 596h160l-600 -477l364 -581h-140l-318 510l-246 -192l-70 -318h-114zM602 1219l408 315h140l-447 -315h-101z" />
<glyph unicode="&#x45e;" horiz-adv-x="1053" d="M-101 -408l44 109q39 -19 103 -19q45 0 83 26.5t84 94.5l124 191l-205 1064h123l176 -924l590 924h134l-835 -1290q-64 -100 -135 -148.5t-160 -48.5q-70 0 -126 21zM309 1378l72 55q38 -77 112 -120.5t174 -43.5q66 0 131 20t121 56.5t104 87.5l56 -55 q-87 -90 -198.5 -141t-227.5 -51q-115 0 -205.5 51t-138.5 141z" />
<glyph unicode="&#x45f;" horiz-adv-x="1182" d="M59 0l232 1058h115l-211 -955h598l213 955h114l-233 -1058h-358l-60 -276h-114l59 276h-355z" />
<glyph unicode="&#x490;" horiz-adv-x="1187" d="M63 0l320 1462h800l59 271h128l-84 -385h-799l-299 -1348h-125z" />
<glyph unicode="&#x491;" horiz-adv-x="930" d="M59 0l232 1058h579l59 276h116l-83 -376h-579l-210 -958h-114z" />
<glyph unicode="&#x2000;" horiz-adv-x="950" />
<glyph unicode="&#x2001;" horiz-adv-x="1900" />
<glyph unicode="&#x2002;" horiz-adv-x="950" />
<glyph unicode="&#x2003;" horiz-adv-x="1900" />
<glyph unicode="&#x2004;" horiz-adv-x="633" />
<glyph unicode="&#x2005;" horiz-adv-x="475" />
<glyph unicode="&#x2006;" horiz-adv-x="316" />
<glyph unicode="&#x2007;" horiz-adv-x="316" />
<glyph unicode="&#x2008;" horiz-adv-x="237" />
<glyph unicode="&#x2009;" horiz-adv-x="113" />
<glyph unicode="&#x200a;" horiz-adv-x="105" />
<glyph unicode="&#x2010;" horiz-adv-x="656" d="M52 477l23 106h525l-21 -106h-527z" />
<glyph unicode="&#x2011;" horiz-adv-x="656" d="M52 477l23 106h525l-21 -106h-527z" />
<glyph unicode="&#x2012;" horiz-adv-x="656" d="M52 477l23 106h525l-21 -106h-527z" />
<glyph unicode="&#x2013;" horiz-adv-x="1298" d="M52 477l23 106h1167l-21 -106h-1169z" />
<glyph unicode="&#x2014;" horiz-adv-x="1824" d="M52 477l23 106h1694l-23 -106h-1694z" />
<glyph unicode="&#x2015;" horiz-adv-x="1298" d="M52 477l23 106h1167l-21 -106h-1169z" />
<glyph unicode="&#x2018;" horiz-adv-x="479" d="M255 1163q0 90 67 181t158 139l53 -57q-40 -20 -76 -50.5t-61 -65.5t-34 -68h15q30 0 52.5 -23.5t22.5 -57.5q0 -42 -31 -72.5t-72.5 -30.5t-67.5 27t-26 78z" />
<glyph unicode="&#x2019;" horiz-adv-x="479" d="M253 1115q40 21 75.5 51t60 65t34.5 68h-15q-20 0 -37 10.5t-27.5 29t-10.5 39.5q0 44 31 74.5t73 30.5q40 0 67 -28t27 -77q0 -90 -67 -181t-159 -139z" />
<glyph unicode="&#x201a;" horiz-adv-x="479" d="M-40 -197q62 32 109.5 83t62.5 101h-15q-30 0 -52.5 23t-22.5 55q0 29 14 53.5t37.5 38.5t50.5 14q41 0 68 -28.5t27 -77.5q0 -90 -67.5 -182t-158.5 -140z" />
<glyph unicode="&#x201b;" horiz-adv-x="479" d="M326 1284q0 52 13 92t33.5 62.5t43.5 33.5t46 11q40 0 65 -23t25 -57q0 -44 -30.5 -72.5t-69.5 -28.5q-21 0 -46 7q-9 -51 15 -114t68 -106l-62 -44q-101 96 -101 239z" />
<glyph unicode="&#x201c;" horiz-adv-x="788" d="M276 1163q0 91 66 181.5t158 138.5l54 -57q-61 -31 -109 -82t-62 -102h16q30 0 52 -23.5t22 -57.5q0 -42 -31.5 -72.5t-73.5 -30.5q-26 0 -46.5 11.5t-33 35.5t-12.5 58zM585 1163q0 46 18.5 94t49.5 90t71.5 77.5t84.5 58.5l52 -57q-60 -32 -108.5 -83t-62.5 -101h15 q32 0 54.5 -23.5t22.5 -57.5q0 -42 -31.5 -72.5t-73.5 -30.5q-26 0 -46.5 11.5t-33 35.5t-12.5 58z" />
<glyph unicode="&#x201d;" horiz-adv-x="788" d="M253 1115q40 21 75.5 51t60 65t34.5 68h-15q-20 0 -37 10.5t-27.5 29t-10.5 39.5q0 44 31 74.5t73 30.5q40 0 67 -28t27 -77q0 -90 -67 -181t-159 -139zM561 1115q61 31 109 82.5t62 101.5h-15q-31 0 -53 23t-22 56q0 44 30.5 74.5t72.5 30.5q26 0 46.5 -12t33 -36 t12.5 -57q0 -90 -66.5 -181t-157.5 -139z" />
<glyph unicode="&#x201e;" horiz-adv-x="788" d="M-40 -197q62 32 109.5 83t62.5 101h-15q-30 0 -52.5 23t-22.5 55q0 29 14 53.5t37.5 38.5t50.5 14q41 0 68 -28.5t27 -77.5q0 -90 -67.5 -182t-158.5 -140zM270 -197q60 32 108.5 83t62.5 101h-16q-21 0 -38.5 10.5t-27.5 28.5t-10 39q0 44 31.5 75t73.5 31q40 0 66 -28 t26 -78q0 -91 -66.5 -182.5t-157.5 -139.5z" />
<glyph unicode="&#x2020;" horiz-adv-x="562" d="M193 1173l18 76l192 -7l46 241h86l-64 -241l198 7l-18 -76l-193 8l-94 -464h-86l113 464z" />
<glyph unicode="&#x2021;" horiz-adv-x="562" d="M73 629l17 76l190 -8l111 484l-198 -8l18 76l192 -7l46 241h86l-64 -241l198 7l-18 -76l-193 8l-107 -484l197 8l-17 -76l-194 7l-46 -241h-84l63 241z" />
<glyph unicode="&#x2022;" horiz-adv-x="784" d="M165 508q0 100 75.5 174t175.5 74q88 0 146.5 -58t58.5 -146q0 -99 -77 -172t-178 -73q-85 0 -143 58t-58 143z" />
<glyph unicode="&#x2026;" horiz-adv-x="1439" d="M42 67q0 43 30.5 73.5t74.5 30.5q36 0 61.5 -26t25.5 -64q0 -42 -31 -72t-74 -30q-37 0 -62 25.5t-25 62.5zM521 67q0 43 31.5 73.5t74.5 30.5q38 0 63 -26t25 -64q0 -42 -31.5 -72t-74.5 -30q-38 0 -63 25.5t-25 62.5zM1002 67q0 43 31 73.5t73 30.5q38 0 63 -26t25 -64 q0 -42 -31 -72t-74 -30q-37 0 -62 25.5t-25 62.5z" />
<glyph unicode="&#x202f;" horiz-adv-x="380" />
<glyph unicode="&#x2030;" horiz-adv-x="2337" d="M163 0l1255 1462h100l-1257 -1462h-98zM197 1058q0 93 31.5 173.5t85 135t123 85.5t144.5 31q134 0 225 -81.5t91 -209.5q0 -75 -20.5 -142t-57 -118t-84.5 -88.5t-105 -57t-117 -19.5q-135 0 -225.5 81t-90.5 210zM299 1067q0 -94 61 -155t157 -61q72 0 135.5 42.5 t103 119.5t39.5 168q0 94 -61.5 155.5t-156.5 61.5q-73 0 -137 -42.5t-102.5 -119.5t-38.5 -169zM765 268q0 92 32 172.5t85 135t122.5 85.5t143.5 31q136 0 227 -81.5t91 -211.5q0 -93 -32 -173.5t-85 -135t-122.5 -86t-143.5 -31.5q-135 0 -226.5 82.5t-91.5 212.5z M868 276q0 -94 61.5 -155.5t155.5 -61.5q73 0 136.5 42.5t102.5 119.5t39 169.5t-61.5 154.5t-155.5 62q-54 0 -105 -25.5t-89 -69t-61 -105.5t-23 -131zM1525 268q0 92 32 172.5t85 135t122.5 85.5t144.5 31q135 0 226.5 -81.5t91.5 -211.5q0 -93 -32 -173.5t-85.5 -135 t-123 -86t-143.5 -31.5q-136 0 -227 82.5t-91 212.5zM1629 276q0 -94 61 -155.5t155 -61.5q73 0 137 42.5t103 119.5t39 169.5t-62 154.5t-155 62q-73 0 -137 -43t-102.5 -119.5t-38.5 -168.5z" />
<glyph unicode="&#x2039;" horiz-adv-x="606" d="M63 533l439 387h134l-448 -399l255 -383h-117z" />
<glyph unicode="&#x203a;" horiz-adv-x="606" d="M-25 138l448 399l-254 383h116l263 -394l-439 -388h-134z" />
<glyph unicode="&#x203e;" horiz-adv-x="795" d="M163 1265l17 80h793l-17 -80h-793z" />
<glyph unicode="&#x2044;" horiz-adv-x="284" d="M-493 0l1256 1462h100l-1258 -1462h-98z" />
<glyph unicode="&#x205f;" horiz-adv-x="475" />
<glyph unicode="&#x20ac;" horiz-adv-x="1511" d="M75 531l19 90h103q0 103 29 222h-82l21 90h88q61 167 179 293.5t267 193t309 66.5q193 0 342 -81t233 -232l-121 -56q-73 131 -193 193t-270 62q-123 0 -241 -52t-214.5 -152.5t-150.5 -234.5h740l-22 -90h-749q-29 -119 -29 -222h730l-20 -90h-706q25 -204 165 -323.5 t359 -119.5q222 0 412 167l90 -75q-108 -104 -239.5 -155.5t-268.5 -51.5q-177 0 -320 69t-230 195.5t-104 293.5h-126z" />
<glyph unicode="&#x2122;" horiz-adv-x="994" d="M230 1405l11 57h334l-12 -57h-136l-94 -426h-61l94 426h-136zM548 979l105 483h94l64 -351l217 351h94l-106 -483h-60l87 399l-252 -399h-17l-77 399l-88 -399h-61z" />
<glyph unicode="&#x25fc;" horiz-adv-x="1062" d="M0 0v1063h1063v-1063h-1063z" />
<hkern u1="K" u2="a" k="39" />
<hkern u1="L" u2="a" k="35" />
<hkern u1="P" u2="a" k="41" />
<hkern u1="R" u2="a" k="41" />
<hkern u1="T" u2="a" k="211" />
<hkern u1="V" u2="a" k="127" />
<hkern u1="W" u2="a" k="82" />
<hkern u1="Y" u2="a" k="258" />
<hkern u1="a" u2="&#x2122;" k="6" />
<hkern u1="a" u2="&#x201d;" k="6" />
<hkern u1="a" u2="&#x201c;" k="6" />
<hkern u1="a" u2="&#x2019;" k="6" />
<hkern u1="a" u2="&#x2018;" k="6" />
<hkern u1="a" u2="&#x42a;" k="233" />
<hkern u1="a" u2="&#x427;" k="233" />
<hkern u1="a" u2="&#x422;" k="233" />
<hkern u1="a" u2="&#x40b;" k="233" />
<hkern u1="a" u2="&#x402;" k="233" />
<hkern u1="a" u2="&#xae;" k="6" />
<hkern u1="a" u2="Y" k="225" />
<hkern u1="a" u2="W" k="86" />
<hkern u1="a" u2="V" k="129" />
<hkern u1="a" u2="T" k="233" />
<hkern u1="a" u2="&#x3f;" k="68" />
<hkern u1="a" u2="&#x27;" k="6" />
<hkern u1="a" u2="&#x22;" k="6" />
<hkern u1="&#x403;" u2="a" k="211" />
<hkern u1="&#x40c;" u2="a" k="39" />
<hkern u1="&#x40e;" u2="a" k="127" />
<hkern u1="&#x413;" u2="a" k="211" />
<hkern u1="&#x416;" u2="a" k="39" />
<hkern u1="&#x41a;" u2="a" k="39" />
<hkern u1="&#x420;" u2="a" k="41" />
<hkern u1="&#x422;" u2="a" k="211" />
<hkern u1="&#x423;" u2="a" k="127" />
<hkern u1="&#x490;" u2="a" k="211" />
<hkern g1="afii10092,afii10094,afii10106,afii10107" 	g2="dagger" 	k="162" />
<hkern g1="afii10092,afii10094,afii10106,afii10107" 	g2="daggerdbl" 	k="41" />
<hkern g1="afii10092,afii10094,afii10106,afii10107" 	g2="question" 	k="121" />
<hkern g1="afii10092,afii10094,afii10106,afii10107" 	g2="quotedbl,quotesingle,registered,quoteleft,quoteright,quotedblleft,quotedblright,trademark" 	k="164" />
<hkern g1="afii10092,afii10094,afii10106,afii10107" 	g2="afii10084,afii10092" 	k="104" />
<hkern g1="afii10092,afii10094,afii10106,afii10107" 	g2="C,G,O,Q,afii10053,afii10032,afii10035,afii10038" 	k="61" />
<hkern g1="afii10092,afii10094,afii10106,afii10107" 	g2="asterisk" 	k="137" />
<hkern g1="afii10092,afii10094,afii10106,afii10107" 	g2="U" 	k="10" />
<hkern g1="afii10092,afii10094,afii10106,afii10107" 	g2="T,afii10051,afii10060,afii10036,afii10041,afii10044" 	k="225" />
<hkern g1="afii10092,afii10094,afii10106,afii10107" 	g2="W" 	k="113" />
<hkern g1="afii10092,afii10094,afii10106,afii10107" 	g2="V" 	k="137" />
<hkern g1="afii10092,afii10094,afii10106,afii10107" 	g2="Y" 	k="170" />
<hkern g1="afii10092,afii10094,afii10106,afii10107" 	g2="bullet" 	k="39" />
<hkern g1="B,afii10018,afii10019,afii10025" 	g2="quotedbl,quotesingle,registered,quoteleft,quoteright,quotedblleft,quotedblright,trademark" 	k="20" />
<hkern g1="B,afii10018,afii10019,afii10025" 	g2="T,afii10051,afii10060,afii10036,afii10041,afii10044" 	k="39" />
<hkern g1="B,afii10018,afii10019,afii10025" 	g2="W" 	k="20" />
<hkern g1="B,afii10018,afii10019,afii10025" 	g2="V" 	k="25" />
<hkern g1="B,afii10018,afii10019,afii10025" 	g2="Y" 	k="61" />
<hkern g1="B,afii10018,afii10019,afii10025" 	g2="afii10069,afii10077,afii10106" 	k="20" />
<hkern g1="afii10067,afii10073" 	g2="question" 	k="86" />
<hkern g1="afii10067,afii10073" 	g2="T,afii10051,afii10060,afii10036,afii10041,afii10044" 	k="139" />
<hkern g1="afii10067,afii10073" 	g2="V" 	k="41" />
<hkern g1="afii10067,afii10073" 	g2="Y" 	k="82" />
<hkern g1="C,afii10053,afii10035" 	g2="question" 	k="4" />
<hkern g1="C,afii10053,afii10035" 	g2="C,G,O,Q,afii10053,afii10032,afii10035,afii10038" 	k="-4" />
<hkern g1="C,afii10053,afii10035" 	g2="S,afii10054,afii10025" 	k="-4" />
<hkern g1="C,afii10053,afii10035" 	g2="T,afii10051,afii10060,afii10036,afii10041,afii10044" 	k="4" />
<hkern g1="C,afii10053,afii10035" 	g2="W" 	k="20" />
<hkern g1="C,afii10053,afii10035" 	g2="V" 	k="23" />
<hkern g1="C,afii10053,afii10035" 	g2="Y" 	k="47" />
<hkern g1="C,afii10053,afii10035" 	g2="afii10069,afii10077,afii10106" 	k="4" />
<hkern g1="C,afii10053,afii10035" 	g2="A,afii10058,afii10017,afii10021,afii10029" 	k="4" />
<hkern g1="D,O,Q,afii10032,afii10038,afii10047,afii10048" 	g2="question" 	k="27" />
<hkern g1="D,O,Q,afii10032,afii10038,afii10047,afii10048" 	g2="quotedbl,quotesingle,registered,quoteleft,quoteright,quotedblleft,quotedblright,trademark" 	k="20" />
<hkern g1="D,O,Q,afii10032,afii10038,afii10047,afii10048" 	g2="J,afii10057" 	k="41" />
<hkern g1="D,O,Q,afii10032,afii10038,afii10047,afii10048" 	g2="T,afii10051,afii10060,afii10036,afii10041,afii10044" 	k="80" />
<hkern g1="D,O,Q,afii10032,afii10038,afii10047,afii10048" 	g2="W" 	k="63" />
<hkern g1="D,O,Q,afii10032,afii10038,afii10047,afii10048" 	g2="V" 	k="66" />
<hkern g1="D,O,Q,afii10032,afii10038,afii10047,afii10048" 	g2="Y" 	k="109" />
<hkern g1="D,O,Q,afii10032,afii10038,afii10047,afii10048" 	g2="afii10069,afii10077,afii10106" 	k="61" />
<hkern g1="D,O,Q,afii10032,afii10038,afii10047,afii10048" 	g2="A,afii10058,afii10017,afii10021,afii10029" 	k="55" />
<hkern g1="D,O,Q,afii10032,afii10038,afii10047,afii10048" 	g2="Z" 	k="39" />
<hkern g1="D,O,Q,afii10032,afii10038,afii10047,afii10048" 	g2="comma,period,quotesinglbase,quotedblbase,ellipsis" 	k="59" />
<hkern g1="D,O,Q,afii10032,afii10038,afii10047,afii10048" 	g2="X,afii10062,afii10024,afii10037,afii10039" 	k="61" />
<hkern g1="F" 	g2="J,afii10057" 	k="113" />
<hkern g1="F" 	g2="afii10069,afii10077,afii10106" 	k="72" />
<hkern g1="F" 	g2="A,afii10058,afii10017,afii10021,afii10029" 	k="68" />
<hkern g1="F" 	g2="comma,period,quotesinglbase,quotedblbase,ellipsis" 	k="102" />
<hkern g1="F" 	g2="ampersand" 	k="6" />
<hkern g1="G" 	g2="question" 	k="6" />
<hkern g1="G" 	g2="T,afii10051,afii10060,afii10036,afii10041,afii10044" 	k="41" />
<hkern g1="G" 	g2="W" 	k="14" />
<hkern g1="G" 	g2="V" 	k="45" />
<hkern g1="G" 	g2="Y" 	k="51" />
<hkern g1="G" 	g2="A,afii10058,afii10017,afii10021,afii10029" 	k="4" />
<hkern g1="G" 	g2="X,afii10062,afii10024,afii10037,afii10039" 	k="4" />
<hkern g1="K,afii10061,afii10024,afii10028" 	g2="afii10084,afii10092" 	k="106" />
<hkern g1="K,afii10061,afii10024,afii10028" 	g2="C,G,O,Q,afii10053,afii10032,afii10035,afii10038" 	k="117" />
<hkern g1="K,afii10061,afii10024,afii10028" 	g2="Y" 	k="53" />
<hkern g1="K,afii10061,afii10024,afii10028" 	g2="f" 	k="47" />
<hkern g1="K,afii10061,afii10024,afii10028" 	g2="u" 	k="41" />
<hkern g1="K,afii10061,afii10024,afii10028" 	g2="t" 	k="72" />
<hkern g1="K,afii10061,afii10024,afii10028" 	g2="w,afii10089" 	k="82" />
<hkern g1="K,afii10061,afii10024,afii10028" 	g2="v" 	k="123" />
<hkern g1="K,afii10061,afii10024,afii10028" 	g2="y,afii10085,afii10110" 	k="123" />
<hkern g1="K,afii10061,afii10024,afii10028" 	g2="hyphen,endash,emdash" 	k="102" />
<hkern g1="K,afii10061,afii10024,afii10028" 	g2="a,c,d,e,g,o,q,afii10065,afii10070,afii10080,afii10083,afii10086,afii10101" 	k="76" />
<hkern g1="K,afii10061,afii10024,afii10028" 	g2="x,afii10072,afii10087" 	k="47" />
<hkern g1="L" 	g2="dagger" 	k="266" />
<hkern g1="L" 	g2="daggerdbl" 	k="217" />
<hkern g1="L" 	g2="question" 	k="240" />
<hkern g1="L" 	g2="quotedbl,quotesingle,registered,quoteleft,quoteright,quotedblleft,quotedblright,trademark" 	k="238" />
<hkern g1="L" 	g2="afii10084,afii10092" 	k="162" />
<hkern g1="L" 	g2="C,G,O,Q,afii10053,afii10032,afii10035,afii10038" 	k="76" />
<hkern g1="L" 	g2="asterisk" 	k="362" />
<hkern g1="L" 	g2="U" 	k="59" />
<hkern g1="L" 	g2="T,afii10051,afii10060,afii10036,afii10041,afii10044" 	k="205" />
<hkern g1="L" 	g2="W" 	k="129" />
<hkern g1="L" 	g2="V" 	k="184" />
<hkern g1="L" 	g2="Y" 	k="250" />
<hkern g1="L" 	g2="u" 	k="35" />
<hkern g1="L" 	g2="t" 	k="66" />
<hkern g1="L" 	g2="w,afii10089" 	k="80" />
<hkern g1="L" 	g2="v" 	k="121" />
<hkern g1="L" 	g2="y,afii10085,afii10110" 	k="121" />
<hkern g1="L" 	g2="ampersand" 	k="18" />
<hkern g1="L" 	g2="a,c,d,e,g,o,q,afii10065,afii10070,afii10080,afii10083,afii10086,afii10101" 	k="53" />
<hkern g1="P,afii10034" 	g2="J,afii10057" 	k="215" />
<hkern g1="P,afii10034" 	g2="W" 	k="4" />
<hkern g1="P,afii10034" 	g2="V" 	k="4" />
<hkern g1="P,afii10034" 	g2="Y" 	k="41" />
<hkern g1="P,afii10034" 	g2="afii10069,afii10077,afii10106" 	k="164" />
<hkern g1="P,afii10034" 	g2="A,afii10058,afii10017,afii10021,afii10029" 	k="162" />
<hkern g1="P,afii10034" 	g2="comma,period,quotesinglbase,quotedblbase,ellipsis" 	k="199" />
<hkern g1="P,afii10034" 	g2="X,afii10062,afii10024,afii10037,afii10039" 	k="10" />
<hkern g1="P,afii10034" 	g2="ampersand" 	k="47" />
<hkern g1="P,afii10034" 	g2="hyphen,endash,emdash" 	k="76" />
<hkern g1="P,afii10034" 	g2="a,c,d,e,g,o,q,afii10065,afii10070,afii10080,afii10083,afii10086,afii10101" 	k="25" />
<hkern g1="R" 	g2="quotedbl,quotesingle,registered,quoteleft,quoteright,quotedblleft,quotedblright,trademark" 	k="4" />
<hkern g1="R" 	g2="T,afii10051,afii10060,afii10036,afii10041,afii10044" 	k="20" />
<hkern g1="R" 	g2="V" 	k="20" />
<hkern g1="R" 	g2="Y" 	k="33" />
<hkern g1="R" 	g2="ampersand" 	k="2" />
<hkern g1="R" 	g2="a,c,d,e,g,o,q,afii10065,afii10070,afii10080,afii10083,afii10086,afii10101" 	k="61" />
<hkern g1="R" 	g2="s,afii10073,afii10095,afii10102" 	k="6" />
<hkern g1="S,afii10054" 	g2="afii10084,afii10092" 	k="6" />
<hkern g1="S,afii10054" 	g2="T,afii10051,afii10060,afii10036,afii10041,afii10044" 	k="27" />
<hkern g1="S,afii10054" 	g2="W" 	k="20" />
<hkern g1="S,afii10054" 	g2="V" 	k="23" />
<hkern g1="S,afii10054" 	g2="Y" 	k="55" />
<hkern g1="S,afii10054" 	g2="t" 	k="39" />
<hkern g1="S,afii10054" 	g2="w,afii10089" 	k="4" />
<hkern g1="S,afii10054" 	g2="v" 	k="6" />
<hkern g1="S,afii10054" 	g2="y,afii10085,afii10110" 	k="6" />
<hkern g1="S,afii10054" 	g2="A,afii10058,afii10017,afii10021,afii10029" 	k="18" />
<hkern g1="S,afii10054" 	g2="x,afii10072,afii10087" 	k="25" />
<hkern g1="T,afii10052,afii10020,afii10036,afii10050" 	g2="afii10084,afii10092" 	k="70" />
<hkern g1="T,afii10052,afii10020,afii10036,afii10050" 	g2="C,G,O,Q,afii10053,afii10032,afii10035,afii10038" 	k="37" />
<hkern g1="T,afii10052,afii10020,afii10036,afii10050" 	g2="J,afii10057" 	k="168" />
<hkern g1="T,afii10052,afii10020,afii10036,afii10050" 	g2="S,afii10054,afii10025" 	k="-18" />
<hkern g1="T,afii10052,afii10020,afii10036,afii10050" 	g2="f" 	k="74" />
<hkern g1="T,afii10052,afii10020,afii10036,afii10050" 	g2="u" 	k="190" />
<hkern g1="T,afii10052,afii10020,afii10036,afii10050" 	g2="w,afii10089" 	k="139" />
<hkern g1="T,afii10052,afii10020,afii10036,afii10050" 	g2="v" 	k="139" />
<hkern g1="T,afii10052,afii10020,afii10036,afii10050" 	g2="y,afii10085,afii10110" 	k="139" />
<hkern g1="T,afii10052,afii10020,afii10036,afii10050" 	g2="afii10069,afii10077,afii10106" 	k="184" />
<hkern g1="T,afii10052,afii10020,afii10036,afii10050" 	g2="A,afii10058,afii10017,afii10021,afii10029" 	k="121" />
<hkern g1="T,afii10052,afii10020,afii10036,afii10050" 	g2="comma,period,quotesinglbase,quotedblbase,ellipsis" 	k="188" />
<hkern g1="T,afii10052,afii10020,afii10036,afii10050" 	g2="ampersand" 	k="82" />
<hkern g1="T,afii10052,afii10020,afii10036,afii10050" 	g2="hyphen,endash,emdash" 	k="123" />
<hkern g1="T,afii10052,afii10020,afii10036,afii10050" 	g2="a,c,d,e,g,o,q,afii10065,afii10070,afii10080,afii10083,afii10086,afii10101" 	k="252" />
<hkern g1="T,afii10052,afii10020,afii10036,afii10050" 	g2="x,afii10072,afii10087" 	k="160" />
<hkern g1="T,afii10052,afii10020,afii10036,afii10050" 	g2="s,afii10073,afii10095,afii10102" 	k="197" />
<hkern g1="T,afii10052,afii10020,afii10036,afii10050" 	g2="colon,semicolon" 	k="102" />
<hkern g1="T,afii10052,afii10020,afii10036,afii10050" 	g2="m,n,p,r,z,afii10067,afii10074,afii10076,afii10078,afii10079,afii10081,afii10082,afii10088,afii10090,afii10091,afii10093,afii10094,afii10096,afii10097,afii10100,afii10107,afii10193,afii10098" 	k="190" />
<hkern g1="afii10068,afii10084,afii10100,afii10098" 	g2="J,afii10057" 	k="156" />
<hkern g1="afii10068,afii10084,afii10100,afii10098" 	g2="T,afii10051,afii10060,afii10036,afii10041,afii10044" 	k="70" />
<hkern g1="afii10068,afii10084,afii10100,afii10098" 	g2="V" 	k="4" />
<hkern g1="afii10068,afii10084,afii10100,afii10098" 	g2="bullet" 	k="133" />
<hkern g1="afii10068,afii10084,afii10100,afii10098" 	g2="afii10069,afii10077,afii10106" 	k="66" />
<hkern g1="afii10068,afii10084,afii10100,afii10098" 	g2="A,afii10058,afii10017,afii10021,afii10029" 	k="76" />
<hkern g1="afii10068,afii10084,afii10100,afii10098" 	g2="comma,period,quotesinglbase,quotedblbase,ellipsis" 	k="123" />
<hkern g1="afii10068,afii10084,afii10100,afii10098" 	g2="ampersand" 	k="80" />
<hkern g1="afii10068,afii10084,afii10100,afii10098" 	g2="hyphen,endash,emdash" 	k="104" />
<hkern g1="J,U,afii10057" 	g2="J,afii10057" 	k="12" />
<hkern g1="J,U,afii10057" 	g2="afii10069,afii10077,afii10106" 	k="10" />
<hkern g1="J,U,afii10057" 	g2="A,afii10058,afii10017,afii10021,afii10029" 	k="27" />
<hkern g1="J,U,afii10057" 	g2="comma,period,quotesinglbase,quotedblbase,ellipsis" 	k="61" />
<hkern g1="V,afii10062,afii10037" 	g2="afii10084,afii10092" 	k="4" />
<hkern g1="V,afii10062,afii10037" 	g2="C,G,O,Q,afii10053,afii10032,afii10035,afii10038" 	k="18" />
<hkern g1="V,afii10062,afii10037" 	g2="J,afii10057" 	k="188" />
<hkern g1="V,afii10062,afii10037" 	g2="S,afii10054,afii10025" 	k="-23" />
<hkern g1="V,afii10062,afii10037" 	g2="f" 	k="45" />
<hkern g1="V,afii10062,afii10037" 	g2="u" 	k="74" />
<hkern g1="V,afii10062,afii10037" 	g2="t" 	k="25" />
<hkern g1="V,afii10062,afii10037" 	g2="w,afii10089" 	k="6" />
<hkern g1="V,afii10062,afii10037" 	g2="v" 	k="25" />
<hkern g1="V,afii10062,afii10037" 	g2="y,afii10085,afii10110" 	k="6" />
<hkern g1="V,afii10062,afii10037" 	g2="afii10069,afii10077,afii10106" 	k="96" />
<hkern g1="V,afii10062,afii10037" 	g2="A,afii10058,afii10017,afii10021,afii10029" 	k="96" />
<hkern g1="V,afii10062,afii10037" 	g2="comma,period,quotesinglbase,quotedblbase,ellipsis" 	k="184" />
<hkern g1="V,afii10062,afii10037" 	g2="ampersand" 	k="12" />
<hkern g1="V,afii10062,afii10037" 	g2="hyphen,endash,emdash" 	k="106" />
<hkern g1="V,afii10062,afii10037" 	g2="a,c,d,e,g,o,q,afii10065,afii10070,afii10080,afii10083,afii10086,afii10101" 	k="123" />
<hkern g1="V,afii10062,afii10037" 	g2="x,afii10072,afii10087" 	k="45" />
<hkern g1="V,afii10062,afii10037" 	g2="s,afii10073,afii10095,afii10102" 	k="72" />
<hkern g1="V,afii10062,afii10037" 	g2="m,n,p,r,z,afii10067,afii10074,afii10076,afii10078,afii10079,afii10081,afii10082,afii10088,afii10090,afii10091,afii10093,afii10094,afii10096,afii10097,afii10100,afii10107,afii10193,afii10098" 	k="74" />
<hkern g1="W" 	g2="C,G,O,Q,afii10053,afii10032,afii10035,afii10038" 	k="18" />
<hkern g1="W" 	g2="J,afii10057" 	k="59" />
<hkern g1="W" 	g2="S,afii10054,afii10025" 	k="-20" />
<hkern g1="W" 	g2="f" 	k="25" />
<hkern g1="W" 	g2="u" 	k="61" />
<hkern g1="W" 	g2="t" 	k="25" />
<hkern g1="W" 	g2="v" 	k="4" />
<hkern g1="W" 	g2="y,afii10085,afii10110" 	k="4" />
<hkern g1="W" 	g2="afii10069,afii10077,afii10106" 	k="92" />
<hkern g1="W" 	g2="A,afii10058,afii10017,afii10021,afii10029" 	k="80" />
<hkern g1="W" 	g2="comma,period,quotesinglbase,quotedblbase,ellipsis" 	k="141" />
<hkern g1="W" 	g2="ampersand" 	k="20" />
<hkern g1="W" 	g2="hyphen,endash,emdash" 	k="66" />
<hkern g1="W" 	g2="a,c,d,e,g,o,q,afii10065,afii10070,afii10080,afii10083,afii10086,afii10101" 	k="82" />
<hkern g1="W" 	g2="x,afii10072,afii10087" 	k="45" />
<hkern g1="W" 	g2="s,afii10073,afii10095,afii10102" 	k="31" />
<hkern g1="W" 	g2="m,n,p,r,z,afii10067,afii10074,afii10076,afii10078,afii10079,afii10081,afii10082,afii10088,afii10090,afii10091,afii10093,afii10094,afii10096,afii10097,afii10100,afii10107,afii10193,afii10098" 	k="61" />
<hkern g1="Y" 	g2="C,G,O,Q,afii10053,afii10032,afii10035,afii10038" 	k="55" />
<hkern g1="Y" 	g2="J,afii10057" 	k="229" />
<hkern g1="Y" 	g2="S,afii10054,afii10025" 	k="12" />
<hkern g1="Y" 	g2="f" 	k="92" />
<hkern g1="Y" 	g2="u" 	k="184" />
<hkern g1="Y" 	g2="t" 	k="47" />
<hkern g1="Y" 	g2="w,afii10089" 	k="123" />
<hkern g1="Y" 	g2="v" 	k="123" />
<hkern g1="Y" 	g2="y,afii10085,afii10110" 	k="123" />
<hkern g1="Y" 	g2="afii10069,afii10077,afii10106" 	k="94" />
<hkern g1="Y" 	g2="A,afii10058,afii10017,afii10021,afii10029" 	k="106" />
<hkern g1="Y" 	g2="comma,period,quotesinglbase,quotedblbase,ellipsis" 	k="184" />
<hkern g1="Y" 	g2="ampersand" 	k="84" />
<hkern g1="Y" 	g2="hyphen,endash,emdash" 	k="231" />
<hkern g1="Y" 	g2="a,c,d,e,g,o,q,afii10065,afii10070,afii10080,afii10083,afii10086,afii10101" 	k="264" />
<hkern g1="Y" 	g2="x,afii10072,afii10087" 	k="147" />
<hkern g1="Y" 	g2="s,afii10073,afii10095,afii10102" 	k="205" />
<hkern g1="Y" 	g2="colon,semicolon" 	k="113" />
<hkern g1="Y" 	g2="m,n,p,r,z,afii10067,afii10074,afii10076,afii10078,afii10079,afii10081,afii10082,afii10088,afii10090,afii10091,afii10093,afii10094,afii10096,afii10097,afii10100,afii10107,afii10193,afii10098" 	k="184" />
<hkern g1="Z" 	g2="C,G,O,Q,afii10053,afii10032,afii10035,afii10038" 	k="39" />
<hkern g1="ampersand" 	g2="quotedbl,quotesingle,registered,quoteleft,quoteright,quotedblleft,quotedblright,trademark" 	k="53" />
<hkern g1="ampersand" 	g2="afii10084,afii10092" 	k="190" />
<hkern g1="ampersand" 	g2="T,afii10051,afii10060,afii10036,afii10041,afii10044" 	k="197" />
<hkern g1="ampersand" 	g2="W" 	k="131" />
<hkern g1="ampersand" 	g2="V" 	k="141" />
<hkern g1="ampersand" 	g2="Y" 	k="236" />
<hkern g1="ampersand" 	g2="y,afii10085,afii10110" 	k="41" />
<hkern g1="asterisk" 	g2="J,afii10057" 	k="231" />
<hkern g1="asterisk" 	g2="afii10069,afii10077,afii10106" 	k="137" />
<hkern g1="asterisk" 	g2="A,afii10058,afii10017,afii10021,afii10029" 	k="217" />
<hkern g1="b,o,p,afii10080,afii10082,afii10086,afii10095,afii10096" 	g2="question" 	k="88" />
<hkern g1="b,o,p,afii10080,afii10082,afii10086,afii10095,afii10096" 	g2="quotedbl,quotesingle,registered,quoteleft,quoteright,quotedblleft,quotedblright,trademark" 	k="20" />
<hkern g1="b,o,p,afii10080,afii10082,afii10086,afii10095,afii10096" 	g2="T,afii10051,afii10060,afii10036,afii10041,afii10044" 	k="252" />
<hkern g1="b,o,p,afii10080,afii10082,afii10086,afii10095,afii10096" 	g2="W" 	k="82" />
<hkern g1="b,o,p,afii10080,afii10082,afii10086,afii10095,afii10096" 	g2="V" 	k="123" />
<hkern g1="b,o,p,afii10080,afii10082,afii10086,afii10095,afii10096" 	g2="Y" 	k="260" />
<hkern g1="b,o,p,afii10080,afii10082,afii10086,afii10095,afii10096" 	g2="comma,period,quotesinglbase,quotedblbase,ellipsis" 	k="18" />
<hkern g1="b,o,p,afii10080,afii10082,afii10086,afii10095,afii10096" 	g2="x,afii10072,afii10087" 	k="80" />
<hkern g1="bullet" 	g2="afii10084,afii10092" 	k="145" />
<hkern g1="bullet" 	g2="afii10069,afii10077,afii10106" 	k="2" />
<hkern g1="c,cent,afii10083,afii10101" 	g2="question" 	k="45" />
<hkern g1="c,cent,afii10083,afii10101" 	g2="quotedbl,quotesingle,registered,quoteleft,quoteright,quotedblleft,quotedblright,trademark" 	k="4" />
<hkern g1="c,cent,afii10083,afii10101" 	g2="T,afii10051,afii10060,afii10036,afii10041,afii10044" 	k="176" />
<hkern g1="c,cent,afii10083,afii10101" 	g2="W" 	k="45" />
<hkern g1="c,cent,afii10083,afii10101" 	g2="V" 	k="68" />
<hkern g1="c,cent,afii10083,afii10101" 	g2="Y" 	k="127" />
<hkern g1="colon,semicolon" 	g2="T,afii10051,afii10060,afii10036,afii10041,afii10044" 	k="102" />
<hkern g1="colon,semicolon" 	g2="Y" 	k="113" />
<hkern g1="e,afii10070,afii10071" 	g2="question" 	k="68" />
<hkern g1="e,afii10070,afii10071" 	g2="quotedbl,quotesingle,registered,quoteleft,quoteright,quotedblleft,quotedblright,trademark" 	k="4" />
<hkern g1="e,afii10070,afii10071" 	g2="asterisk" 	k="39" />
<hkern g1="e,afii10070,afii10071" 	g2="T,afii10051,afii10060,afii10036,afii10041,afii10044" 	k="217" />
<hkern g1="e,afii10070,afii10071" 	g2="W" 	k="82" />
<hkern g1="e,afii10070,afii10071" 	g2="V" 	k="106" />
<hkern g1="e,afii10070,afii10071" 	g2="Y" 	k="225" />
<hkern g1="e,afii10070,afii10071" 	g2="comma,period,quotesinglbase,quotedblbase,ellipsis" 	k="18" />
<hkern g1="f" 	g2="question" 	k="-121" />
<hkern g1="f" 	g2="quotedbl,quotesingle,registered,quoteleft,quoteright,quotedblleft,quotedblright,trademark" 	k="-141" />
<hkern g1="f" 	g2="asterisk" 	k="-141" />
<hkern g1="f" 	g2="S,afii10054,afii10025" 	k="-45" />
<hkern g1="f" 	g2="U" 	k="-82" />
<hkern g1="f" 	g2="T,afii10051,afii10060,afii10036,afii10041,afii10044" 	k="-82" />
<hkern g1="f" 	g2="W" 	k="-127" />
<hkern g1="f" 	g2="V" 	k="-127" />
<hkern g1="f" 	g2="Y" 	k="-109" />
<hkern g1="f" 	g2="Z" 	k="-82" />
<hkern g1="f" 	g2="comma,period,quotesinglbase,quotedblbase,ellipsis" 	k="86" />
<hkern g1="f" 	g2="X,afii10062,afii10024,afii10037,afii10039" 	k="-82" />
<hkern g1="f" 	g2="ampersand" 	k="4" />
<hkern g1="f" 	g2="exclam,B,D,E,F,H,I,K,L,M,N,P,R" 	k="-82" />
<hkern g1="f" 	g2="parenright,bracketright,braceright" 	k="-158" />
<hkern g1="g,j,q,afii10105" 	g2="question" 	k="45" />
<hkern g1="g,j,q,afii10105" 	g2="T,afii10051,afii10060,afii10036,afii10041,afii10044" 	k="190" />
<hkern g1="g,j,q,afii10105" 	g2="W" 	k="61" />
<hkern g1="g,j,q,afii10105" 	g2="V" 	k="74" />
<hkern g1="g,j,q,afii10105" 	g2="Y" 	k="184" />
<hkern g1="g,j,q,afii10105" 	g2="j,afii10105" 	k="-88" />
<hkern g1="hyphen,endash,emdash" 	g2="afii10084,afii10092" 	k="104" />
<hkern g1="hyphen,endash,emdash" 	g2="W" 	k="66" />
<hkern g1="hyphen,endash,emdash" 	g2="V" 	k="106" />
<hkern g1="hyphen,endash,emdash" 	g2="Y" 	k="215" />
<hkern g1="hyphen,endash,emdash" 	g2="X,afii10062,afii10024,afii10037,afii10039" 	k="86" />
<hkern g1="k,afii10072,afii10076,afii10109" 	g2="T,afii10051,afii10060,afii10036,afii10041,afii10044" 	k="164" />
<hkern g1="k,afii10072,afii10076,afii10109" 	g2="W" 	k="45" />
<hkern g1="k,afii10072,afii10076,afii10109" 	g2="V" 	k="45" />
<hkern g1="k,afii10072,afii10076,afii10109" 	g2="Y" 	k="129" />
<hkern g1="k,afii10072,afii10076,afii10109" 	g2="bullet" 	k="59" />
<hkern g1="k,afii10072,afii10076,afii10109" 	g2="hyphen,endash,emdash" 	k="59" />
<hkern g1="k,afii10072,afii10076,afii10109" 	g2="a,c,d,e,g,o,q,afii10065,afii10070,afii10080,afii10083,afii10086,afii10101" 	k="2" />
<hkern g1="comma,period,quotesinglbase,quotedblbase,ellipsis" 	g2="quotedbl,quotesingle,registered,quoteleft,quoteright,quotedblleft,quotedblright,trademark" 	k="150" />
<hkern g1="comma,period,quotesinglbase,quotedblbase,ellipsis" 	g2="afii10084,afii10092" 	k="123" />
<hkern g1="comma,period,quotesinglbase,quotedblbase,ellipsis" 	g2="U" 	k="61" />
<hkern g1="comma,period,quotesinglbase,quotedblbase,ellipsis" 	g2="T,afii10051,afii10060,afii10036,afii10041,afii10044" 	k="188" />
<hkern g1="comma,period,quotesinglbase,quotedblbase,ellipsis" 	g2="W" 	k="141" />
<hkern g1="comma,period,quotesinglbase,quotedblbase,ellipsis" 	g2="V" 	k="182" />
<hkern g1="comma,period,quotesinglbase,quotedblbase,ellipsis" 	g2="Y" 	k="184" />
<hkern g1="comma,period,quotesinglbase,quotedblbase,ellipsis" 	g2="f" 	k="45" />
<hkern g1="comma,period,quotesinglbase,quotedblbase,ellipsis" 	g2="t" 	k="45" />
<hkern g1="comma,period,quotesinglbase,quotedblbase,ellipsis" 	g2="w,afii10089" 	k="96" />
<hkern g1="comma,period,quotesinglbase,quotedblbase,ellipsis" 	g2="v" 	k="141" />
<hkern g1="comma,period,quotesinglbase,quotedblbase,ellipsis" 	g2="y,afii10085,afii10110" 	k="121" />
<hkern g1="comma,period,quotesinglbase,quotedblbase,ellipsis" 	g2="a,c,d,e,g,o,q,afii10065,afii10070,afii10080,afii10083,afii10086,afii10101" 	k="18" />
<hkern g1="comma,period,quotesinglbase,quotedblbase,ellipsis" 	g2="j,afii10105" 	k="-82" />
<hkern g1="comma,period,quotesinglbase,quotedblbase,ellipsis" 	g2="seven" 	k="129" />
<hkern g1="comma,period,quotesinglbase,quotedblbase,ellipsis" 	g2="one" 	k="141" />
<hkern g1="comma,period,quotesinglbase,quotedblbase,ellipsis" 	g2="zero,six" 	k="74" />
<hkern g1="quotedbl,quotesingle,quoteleft,quoteright,quotedblleft,quotedblright" 	g2="C,G,O,Q,afii10053,afii10032,afii10035,afii10038" 	k="4" />
<hkern g1="quotedbl,quotesingle,quoteleft,quoteright,quotedblleft,quotedblright" 	g2="J,afii10057" 	k="176" />
<hkern g1="quotedbl,quotesingle,quoteleft,quoteright,quotedblleft,quotedblright" 	g2="afii10069,afii10077,afii10106" 	k="164" />
<hkern g1="quotedbl,quotesingle,quoteleft,quoteright,quotedblleft,quotedblright" 	g2="A,afii10058,afii10017,afii10021,afii10029" 	k="219" />
<hkern g1="quotedbl,quotesingle,quoteleft,quoteright,quotedblleft,quotedblright" 	g2="comma,period,quotesinglbase,quotedblbase,ellipsis" 	k="150" />
<hkern g1="quotedbl,quotesingle,quoteleft,quoteright,quotedblleft,quotedblright" 	g2="ampersand" 	k="-18" />
<hkern g1="quotedbl,quotesingle,quoteleft,quoteright,quotedblleft,quotedblright" 	g2="s,afii10073,afii10095,afii10102" 	k="61" />
<hkern g1="r" 	g2="T,afii10051,afii10060,afii10036,afii10041,afii10044" 	k="111" />
<hkern g1="r" 	g2="W" 	k="6" />
<hkern g1="r" 	g2="V" 	k="45" />
<hkern g1="r" 	g2="Y" 	k="102" />
<hkern g1="r" 	g2="comma,period,quotesinglbase,quotedblbase,ellipsis" 	k="168" />
<hkern g1="r" 	g2="X,afii10062,afii10024,afii10037,afii10039" 	k="10" />
<hkern g1="s,afii10102" 	g2="question" 	k="86" />
<hkern g1="s,afii10102" 	g2="quotedbl,quotesingle,registered,quoteleft,quoteright,quotedblleft,quotedblright,trademark" 	k="41" />
<hkern g1="s,afii10102" 	g2="T,afii10051,afii10060,afii10036,afii10041,afii10044" 	k="193" />
<hkern g1="s,afii10102" 	g2="W" 	k="72" />
<hkern g1="s,afii10102" 	g2="V" 	k="86" />
<hkern g1="s,afii10102" 	g2="Y" 	k="188" />
<hkern g1="s,afii10102" 	g2="X,afii10062,afii10024,afii10037,afii10039" 	k="4" />
<hkern g1="t" 	g2="T,afii10051,afii10060,afii10036,afii10041,afii10044" 	k="125" />
<hkern g1="t" 	g2="W" 	k="25" />
<hkern g1="t" 	g2="V" 	k="47" />
<hkern g1="t" 	g2="Y" 	k="66" />
<hkern g1="a,u,z,afii10069,afii10074,afii10077,afii10078,afii10079,afii10081,afii10088,afii10089,afii10090,afii10091,afii10093,afii10097,afii10193" 	g2="question" 	k="45" />
<hkern g1="a,u,z,afii10069,afii10074,afii10077,afii10078,afii10079,afii10081,afii10088,afii10089,afii10090,afii10091,afii10093,afii10097,afii10193" 	g2="T,afii10051,afii10060,afii10036,afii10041,afii10044" 	k="190" />
<hkern g1="a,u,z,afii10069,afii10074,afii10077,afii10078,afii10079,afii10081,afii10088,afii10089,afii10090,afii10091,afii10093,afii10097,afii10193" 	g2="W" 	k="61" />
<hkern g1="a,u,z,afii10069,afii10074,afii10077,afii10078,afii10079,afii10081,afii10088,afii10089,afii10090,afii10091,afii10093,afii10097,afii10193" 	g2="V" 	k="74" />
<hkern g1="a,u,z,afii10069,afii10074,afii10077,afii10078,afii10079,afii10081,afii10088,afii10089,afii10090,afii10091,afii10093,afii10097,afii10193" 	g2="Y" 	k="184" />
<hkern g1="v" 	g2="T,afii10051,afii10060,afii10036,afii10041,afii10044" 	k="139" />
<hkern g1="v" 	g2="W" 	k="4" />
<hkern g1="v" 	g2="V" 	k="25" />
<hkern g1="v" 	g2="Y" 	k="123" />
<hkern g1="v" 	g2="A,afii10058,afii10017,afii10021,afii10029" 	k="41" />
<hkern g1="v" 	g2="comma,period,quotesinglbase,quotedblbase,ellipsis" 	k="141" />
<hkern g1="v" 	g2="X,afii10062,afii10024,afii10037,afii10039" 	k="80" />
<hkern g1="w" 	g2="T,afii10051,afii10060,afii10036,afii10041,afii10044" 	k="139" />
<hkern g1="w" 	g2="V" 	k="6" />
<hkern g1="w" 	g2="Y" 	k="123" />
<hkern g1="w" 	g2="A,afii10058,afii10017,afii10021,afii10029" 	k="39" />
<hkern g1="w" 	g2="comma,period,quotesinglbase,quotedblbase,ellipsis" 	k="96" />
<hkern g1="w" 	g2="X,afii10062,afii10024,afii10037,afii10039" 	k="96" />
<hkern g1="y,afii10085,afii10110" 	g2="question" 	k="4" />
<hkern g1="y,afii10085,afii10110" 	g2="T,afii10051,afii10060,afii10036,afii10041,afii10044" 	k="139" />
<hkern g1="y,afii10085,afii10110" 	g2="W" 	k="4" />
<hkern g1="y,afii10085,afii10110" 	g2="V" 	k="6" />
<hkern g1="y,afii10085,afii10110" 	g2="Y" 	k="123" />
<hkern g1="y,afii10085,afii10110" 	g2="A,afii10058,afii10017,afii10021,afii10029" 	k="41" />
<hkern g1="y,afii10085,afii10110" 	g2="comma,period,quotesinglbase,quotedblbase,ellipsis" 	k="121" />
<hkern g1="y,afii10085,afii10110" 	g2="X,afii10062,afii10024,afii10037,afii10039" 	k="80" />
<hkern g1="X,afii10039" 	g2="C,G,O,Q,afii10053,afii10032,afii10035,afii10038" 	k="61" />
<hkern g1="X,afii10039" 	g2="f" 	k="61" />
<hkern g1="X,afii10039" 	g2="t" 	k="61" />
<hkern g1="X,afii10039" 	g2="w,afii10089" 	k="96" />
<hkern g1="X,afii10039" 	g2="v" 	k="80" />
<hkern g1="X,afii10039" 	g2="y,afii10085,afii10110" 	k="80" />
<hkern g1="X,afii10039" 	g2="hyphen,endash,emdash" 	k="86" />
<hkern g1="zero,nine" 	g2="comma,period,quotesinglbase,quotedblbase,ellipsis" 	k="74" />
<hkern g1="seven" 	g2="comma,period,quotesinglbase,quotedblbase,ellipsis" 	k="203" />
<hkern g1="x,afii10087" 	g2="T,afii10051,afii10060,afii10036,afii10041,afii10044" 	k="160" />
<hkern g1="x,afii10087" 	g2="W" 	k="45" />
<hkern g1="x,afii10087" 	g2="V" 	k="45" />
<hkern g1="x,afii10087" 	g2="Y" 	k="147" />
<hkern g1="x,afii10087" 	g2="a,c,d,e,g,o,q,afii10065,afii10070,afii10080,afii10083,afii10086,afii10101" 	k="80" />
<hkern g1="parenleft,bracketleft,braceleft" 	g2="j,afii10105" 	k="-225" />
</font>
</defs></svg> 