<?xml version="1.0" encoding="utf-8"?>
<!-- Generator: Adobe Illustrator 15.0.0, SVG Export Plug-In . SVG Version: 6.00 Build 0)  -->
<!DOCTYPE svg PUBLIC "-//W3C//DTD SVG 1.0//EN" "http://www.w3.org/TR/2001/REC-SVG-20010904/DTD/svg10.dtd">
<svg version="1.0" id="Layer_1" xmlns="http://www.w3.org/2000/svg" xmlns:xlink="http://www.w3.org/1999/xlink" x="0px" y="0px"
	 width="66px" height="53px" viewBox="0 0 66 53" enable-background="new 0 0 66 53" xml:space="preserve" fill="#007aff">
<path d="M65.665,17.937c-0.001-0.057-0.021-0.109-0.032-0.165c0.063-0.265,0.026-0.551-0.139-0.793L54.202,0.436
	c-0.003-0.003-0.007-0.005-0.01-0.009c-0.018-0.025-0.045-0.043-0.064-0.067c-0.041-0.047-0.085-0.087-0.134-0.126
	c-0.032-0.026-0.058-0.06-0.092-0.081c-0.003-0.002-0.005-0.006-0.009-0.008c-0.021-0.013-0.045-0.013-0.066-0.024
	c-0.051-0.026-0.104-0.044-0.16-0.062c-0.043-0.013-0.082-0.034-0.125-0.042c-0.033-0.005-0.066-0.001-0.1-0.003
	C53.418,0.012,53.399,0,53.375,0H12.292c-0.024,0-0.043,0.012-0.067,0.014c-0.033,0.002-0.065-0.002-0.098,0.003
	C12.083,0.024,12.043,0.045,12,0.059c-0.057,0.018-0.11,0.036-0.162,0.062c-0.021,0.011-0.044,0.011-0.065,0.024
	c-0.003,0.002-0.005,0.005-0.008,0.007c-0.034,0.021-0.06,0.055-0.091,0.08c-0.05,0.04-0.095,0.08-0.136,0.129
	c-0.02,0.023-0.046,0.041-0.063,0.065c-0.002,0.004-0.007,0.006-0.01,0.01L0.174,16.978c-0.165,0.242-0.202,0.528-0.14,0.792
	c-0.01,0.056-0.031,0.11-0.032,0.167C0.002,17.941,0,17.944,0,17.948c0,0.048,0.021,0.088,0.027,0.134
	c0.011,0.08,0.017,0.16,0.047,0.236c0.031,0.076,0.082,0.139,0.129,0.205c0.027,0.037,0.04,0.081,0.073,0.115l31.833,33.385
	c0.006,0.007,0.014,0.008,0.021,0.015c0.006,0.006,0.008,0.014,0.014,0.02c0.008,0.007,0.018,0.01,0.026,0.016
	c0.015,0.014,0.029,0.027,0.045,0.04c0.053,0.042,0.112,0.071,0.172,0.103c0.025,0.012,0.045,0.032,0.071,0.043
	c0.011,0.004,0.023,0.006,0.035,0.01c0.014,0.006,0.027,0.013,0.042,0.018c0.002,0,0.003,0.002,0.005,0.003
	c0.088,0.027,0.177,0.038,0.265,0.04c0.009,0.001,0.018,0.005,0.028,0.005c0,0,0,0,0.001,0c0,0,0,0,0,0
	c0.01,0,0.019-0.004,0.028-0.005c0.088-0.002,0.177-0.013,0.265-0.04c0.002-0.001,0.003-0.003,0.005-0.003
	c0.015-0.005,0.027-0.012,0.042-0.018c0.012-0.004,0.023-0.006,0.035-0.01c0.025-0.011,0.046-0.031,0.071-0.043
	c0.06-0.031,0.119-0.061,0.172-0.103c0.016-0.013,0.03-0.026,0.045-0.04c0.008-0.006,0.019-0.009,0.026-0.016
	c0.006-0.006,0.008-0.014,0.014-0.02c0.006-0.007,0.015-0.008,0.021-0.015L65.39,18.638c0.031-0.033,0.043-0.074,0.069-0.11
	c0.049-0.067,0.102-0.132,0.133-0.21c0.029-0.074,0.035-0.151,0.046-0.229c0.007-0.048,0.028-0.091,0.028-0.141
	C65.667,17.944,65.665,17.94,65.665,17.937z M51.6,2l-8.495,14.019L34.608,2H51.6z M41.331,16.948H24.337l8.496-14.02L41.331,16.948
	z M31.059,2l-8.496,14.02L14.066,2H31.059z M12.242,2.847l8.546,14.101H2.616L12.242,2.847z M3.335,18.948h18.488l8.807,28.627
	L3.335,18.948z M32.833,47.935l-8.918-28.986h17.836L32.833,47.935z M35.036,47.575l8.808-28.627h18.488L35.036,47.575z
	 M44.879,16.948l8.547-14.101l9.625,14.101H44.879z"/>
</svg>
